<?xml version="1.0"?>
<robot name="krock2">

  <link name="base_link"/>

  <link name="krock2">
    <inertial>
      <mass value="0.634"/>
      <inertia ixx="0.007705395945" ixy="0.0" ixz="0.0" iyy="0.012506517202500003" iyz="0.0" izz="0.0058872782025"/>
    </inertial>
    <collision>
      <origin xyz="0.016000000000000014 0.0 0.0" rpy="-7.1795860596751346e-09 0.0 0.0"/>
      <geometry>
        <box size="0.17 0.057 0.207"/>
      </geometry>
    </collision>
    <visual>
      <origin xyz="0 0 0" rpy="0 0 0"/>
      <geometry>
        <box size="0 0 0"/>
      </geometry>
    </visual>
  </link>

  <joint name="krock2_to_base_link" type="fixed">
    <parent link="base_link"/>
    <child link="krock2"/>
  </joint>

  <link name="Head_T">
  </link>

  <joint name="Head_T_to_krock2" type="fixed">
    <parent link="krock2"/>
    <child link="Head_T"/>
  </joint>

  <link name="solid_head">
    <inertial>
      <mass value="0.2"/>
      <inertia ixx="0.0002000833333333334" ixy="0.0" ixz="0.0" iyy="0.0001755833333333334" iyz="0.0" izz="0.0001755833333333334"/>
    </inertial>
    <collision>
      <origin xyz="0.13000000000000034 0.0 0.0" rpy="-7.1795860596751346e-09 0.0 0.0"/>
      <geometry>
        <box size="0.05 0.07 0.07"/>
      </geometry>
    </collision>
    <visual>
      <origin xyz="0 0 0" rpy="0 0 0"/>
      <geometry>
        <box size="0 0 0"/>
      </geometry>
    </visual>
  </link>

  <joint name="solid_head_to_Head_T" type="fixed">
    <parent link="Head_T"/>
    <child link="solid_head"/>
  </joint>

  <link name="Head_transform">
    <visual>
      <origin xyz="0.1200000000000001 3.5897923522654196e-11 0.005" rpy="-3.139638072586331 1.5707926535755434 -3.139638072586344"/>
      <geometry>
        <mesh filename="meshes/krock_script_meshes/-root-shape-11.dae" scale="1.0 1.0 1.0"/>
      </geometry>
    </visual>
  </link>

  <joint name="Head_transform_to_solid_head" type="fixed">
    <parent link="solid_head"/>
    <child link="Head_transform"/>
  </joint>

  <link name="FrontGirdle">
  </link>

  <joint name="FrontGirdle_to_krock2" type="fixed">
    <parent link="krock2"/>
    <child link="FrontGirdle"/>
  </joint>

  <link name="FrontGirdleSpineMX">
    <visual>
      <origin xyz="-0.028000000000000025 0.0 0.0" rpy="-3.139638072586331 -1.5707926535755432 3.139638072586344"/>
      <geometry>
        <mesh filename="meshes/krock_script_meshes/-root-shape-4.dae" scale="1.0 1.0 1.0"/>
      </geometry>
    </visual>
  </link>

  <joint name="FrontGirdleSpineMX_to_FrontGirdle" type="fixed">
    <parent link="FrontGirdle"/>
    <child link="FrontGirdleSpineMX"/>
  </joint>

  <link name="FrontGirdleMain">
    <visual>
      <origin xyz="0.017999999999999794 0.0 0.0" rpy="-3.139638072586331 1.5707926535755434 -3.139638072586344"/>
      <geometry>
        <mesh filename="meshes/krock_script_meshes/-root-shape-3.dae" scale="1.0 1.0 1.0"/>
      </geometry>
    </visual>
  </link>

  <joint name="FrontGirdleMain_to_FrontGirdle" type="fixed">
    <parent link="FrontGirdle"/>
    <child link="FrontGirdleMain"/>
  </joint>

  <link name="FrontLeftPitchMX">
    <visual>
      <origin xyz="-0.04700000000000015 -5.025710125838856e-10 -0.07" rpy="-3.139638072586331 1.5707926535755434 -3.139638072586344"/>
      <geometry>
        <mesh filename="meshes/krock_script_meshes/-root-shape-6.dae" scale="1.0 1.0 1.0"/>
      </geometry>
    </visual>
  </link>

  <joint name="FrontLeftPitchMX_to_FrontGirdle" type="fixed">
    <parent link="FrontGirdle"/>
    <child link="FrontLeftPitchMX"/>
  </joint>

  <link name="FrontRightPitchMX">
    <visual>
      <origin xyz="-0.04700000000000015 5.025710125838856e-10 0.07" rpy="1.5707953853639374 -1.570794443285764 1.5707953918476767"/>
      <geometry>
        <mesh filename="meshes/krock_script_meshes/-root-shape-6.dae" scale="1.0 1.0 1.0"/>
      </geometry>
    </visual>
  </link>

  <joint name="FrontRightPitchMX_to_FrontGirdle" type="fixed">
    <parent link="FrontGirdle"/>
    <child link="FrontRightPitchMX"/>
  </joint>

  <link name="SPINE1_T">
  </link>

  <joint name="SPINE1_T_to_krock2" type="fixed">
    <parent link="krock2"/>
    <child link="SPINE1_T"/>
  </joint>

  <link name="solid_spine1_endpoint">
    <inertial>
      <mass value="0.909"/>
      <inertia ixx="0.00020833333333333343" ixy="0.0" ixz="0.0" iyy="0.009335333333333336" iyz="0.0" izz="0.009335333333333336"/>
    </inertial>
    <collision>
      <origin xyz="-0.12300000000000022 0.0 0.0" rpy="-7.1795860596751346e-09 0.0 0.0"/>
      <geometry>
        <box size="0.2 0.05 0.05"/>
      </geometry>
    </collision>
    <visual>
      <origin xyz="0 0 0" rpy="0 0 0"/>
      <geometry>
        <box size="0 0 0"/>
      </geometry>
    </visual>
  </link>

  <joint name="solid_spine1_endpoint_to_SPINE1_T_SPINE1_HJ" type="continuous">
    <parent link="SPINE1_T"/>
    <child link="solid_spine1_endpoint"/>
    <axis xyz="0.0 1.0 0.0"/>
    <origin xyz="-0.049900000000000055 0.0 0.0"/>
    <limit effort="30" velocity="1"/>
  </joint>

  <link name="solid_spine1_endpoint_C">
  </link>

  <joint name="solid_spine1_endpoint_C_to_solid_spine1_endpoint" type="fixed">
    <parent link="solid_spine1_endpoint"/>
    <child link="solid_spine1_endpoint_C"/>
  </joint>

  <link name="SPINE2_T">
  </link>

  <joint name="SPINE2_T_to_solid_spine1_endpoint" type="fixed">
    <parent link="solid_spine1_endpoint"/>
    <child link="SPINE2_T"/>
  </joint>

  <link name="solid_spine2_endpoint">
    <inertial>
      <mass value="0.634"/>
      <inertia ixx="0.0077678959450000005" ixy="0.0" ixz="0.0" iyy="0.023625262722500005" iyz="0.0" izz="0.017006023722500003"/>
    </inertial>
    <collision>
      <origin xyz="-0.06000000000000005 0.0 0.0" rpy="-7.1795860596751346e-09 0.0 0.0"/>
      <geometry>
        <box size="0.17 0.057 0.207"/>
      </geometry>
    </collision>
    <collision>
      <origin xyz="-0.17000000000000037 0.0 0.0" rpy="-7.1795860596751346e-09 0.0 0.0"/>
      <geometry>
        <box size="0.06 0.05 0.05"/>
      </geometry>
    </collision>
    <visual>
      <origin xyz="0 0 0" rpy="0 0 0"/>
      <geometry>
        <box size="0 0 0"/>
      </geometry>
    </visual>
  </link>

  <joint name="solid_spine2_endpoint_to_SPINE2_T_SPINE2_HJ" type="continuous">
    <parent link="SPINE2_T"/>
    <child link="solid_spine2_endpoint"/>
    <axis xyz="0.0 1.0 0.0"/>
    <origin xyz="-0.246 0.0 0.0"/>
    <limit effort="30" velocity="1"/>
  </joint>

  <link name="Tail1MX">
    <visual>
      <origin xyz="-0.17500000000000027 -2.7755575615628914e-17 -2.58924e-09" rpy="-0.007041349155821186 -1.5707953071808323 0.007041349155817526"/>
      <geometry>
        <mesh filename="meshes/krock_script_meshes/-root-shape-4.dae" scale="1.0 1.0 1.0"/>
      </geometry>
    </visual>
  </link>

  <joint name="Tail1MX_to_solid_spine2_endpoint" type="fixed">
    <parent link="solid_spine2_endpoint"/>
    <child link="Tail1MX"/>
  </joint>

  <link name="TAIL1_T">
  </link>

  <joint name="TAIL1_T_to_solid_spine2_endpoint" type="fixed">
    <parent link="solid_spine2_endpoint"/>
    <child link="TAIL1_T"/>
  </joint>

  <link name="solid_tail1_endpoint">
    <inertial>
      <mass value="0.13"/>
      <inertia ixx="3.416666666666668e-05" ixy="0.0" ixz="0.0" iyy="0.00040166666666665896" iyz="7.647114828031506e-12" izz="0.00039416666666667455"/>
    </inertial>
    <collision>
      <origin xyz="-0.05999999999999961 0.0 0.0" rpy="-1.5707953143591726 0.0 0.0"/>
      <geometry>
        <box size="0.05 0.05 0.04"/>
      </geometry>
    </collision>
    <visual>
      <origin xyz="0 0 0" rpy="0 0 0"/>
      <geometry>
        <box size="0 0 0"/>
      </geometry>
    </visual>
  </link>

  <joint name="solid_tail1_endpoint_to_TAIL1_T_TAIL1_T_C" type="continuous">
    <parent link="TAIL1_T"/>
    <child link="solid_tail1_endpoint"/>
    <axis xyz="0.0 1.0 0.0"/>
    <origin xyz="-0.18500000000000005 0.0 0.0"/>
    <limit effort="30" velocity="1"/>
  </joint>

  <link name="TAIL2_T">
  </link>

  <joint name="TAIL2_T_to_solid_tail1_endpoint" type="fixed">
    <parent link="solid_tail1_endpoint"/>
    <child link="TAIL2_T"/>
  </joint>

  <link name="solid_tail1_passive_endpoint">
    <inertial>
      <mass value="0.13"/>
      <inertia ixx="2.5599999999999995e-05" ixy="0.0" ixz="0.0" iyy="0.0002816" iyz="0.0" izz="0.0002816"/>
    </inertial>
    <collision>
      <origin xyz="-0.04999999999999982 0.0 0.0" rpy="-7.1795860596751346e-09 0.0 0.0"/>
      <geometry>
        <box size="0.06 0.04 0.04"/>
      </geometry>
    </collision>
    <visual>
      <origin xyz="0 0 0" rpy="0 0 0"/>
      <geometry>
        <box size="0 0 0"/>
      </geometry>
    </visual>
  </link>

  <joint name="solid_tail1_passive_endpoint_to_TAIL2_T_TAIL2_T_C" type="continuous">
    <parent link="TAIL2_T"/>
    <child link="solid_tail1_passive_endpoint"/>
    <axis xyz="0.0 0.0 1.0"/>
    <origin xyz="-0.08000000000000007 0.0 0.0"/>
    <limit effort="30" velocity="1"/>
  </joint>

  <link name="TAIL3_T">
  </link>

  <joint name="TAIL3_T_to_solid_tail1_passive_endpoint" type="fixed">
    <parent link="solid_tail1_passive_endpoint"/>
    <child link="TAIL3_T"/>
  </joint>

  <link name="solid_tail3_endpoint">
    <inertial>
      <mass value="0.1"/>
      <inertia ixx="2.5e-05" ixy="0.0" ixz="0.0" iyy="0.0007040000000000001" iyz="0.0" izz="0.0006970000000000001"/>
    </inertial>
    <collision>
      <origin xyz="-0.07000000000000028 0.0 0.0" rpy="-7.1795860596751346e-09 0.0 0.0"/>
      <geometry>
        <box size="0.1 0.03 0.04"/>
      </geometry>
    </collision>
    <visual>
      <origin xyz="0 0 0" rpy="0 0 0"/>
      <geometry>
        <box size="0 0 0"/>
      </geometry>
    </visual>
  </link>

  <joint name="solid_tail3_endpoint_to_TAIL3_T_TAIL3_T_C" type="continuous">
    <parent link="TAIL3_T"/>
    <child link="solid_tail3_endpoint"/>
    <axis xyz="0.0 1.0 0.0"/>
    <origin xyz="-0.07000000000000028 0.0 0.0"/>
    <limit effort="30" velocity="1"/>
  </joint>

  <link name="Fin_Transform">
    <visual>
      <origin xyz="-0.07000000000000028 -3.969047313034935e-15 -5.5203565e-07" rpy="3.141592653589793 1.5707926535755434 3.141592653589793"/>
      <geometry>
        <mesh filename="meshes/krock_script_meshes/-root-shape-10.dae" scale="1.0 1.0 0.3"/>
      </geometry>
    </visual>
  </link>

  <joint name="Fin_Transform_to_solid_tail3_endpoint" type="fixed">
    <parent link="solid_tail3_endpoint"/>
    <child link="Fin_Transform"/>
  </joint>

  <link name="TAIL2MX">
    <visual>
      <origin xyz="-0.04999999999999982 0.0 -7.19235e-10" rpy="-0.007041349155821186 -1.5707953071808323 0.007041349155817526"/>
      <geometry>
        <mesh filename="meshes/krock_script_meshes/-root-shape-4.dae" scale="1.0 1.0 1.0"/>
      </geometry>
    </visual>
  </link>

  <joint name="TAIL2MX_to_solid_tail1_passive_endpoint" type="fixed">
    <parent link="solid_tail1_passive_endpoint"/>
    <child link="TAIL2MX"/>
  </joint>

  <link name="Tail2MX">
    <visual>
      <origin xyz="-0.05999999999999961 0.0 -8.63081e-10" rpy="-1.5707991544254853 2.83481819063347e-06 1.5707991544255058"/>
      <geometry>
        <mesh filename="meshes/krock_script_meshes/-root-shape-4.dae" scale="1.0 1.0 1.0"/>
      </geometry>
    </visual>
  </link>

  <joint name="Tail2MX_to_solid_tail1_endpoint" type="fixed">
    <parent link="solid_tail1_endpoint"/>
    <child link="Tail2MX"/>
  </joint>

  <link name="HLpitch_T">
  </link>

  <joint name="HLpitch_T_to_solid_spine2_endpoint" type="fixed">
    <parent link="solid_spine2_endpoint"/>
    <child link="HLpitch_T"/>
  </joint>

  <link name="solid_hlpitch_hj_endpoint">
    <inertial>
      <mass value="0.14"/>
      <inertia ixx="9.172000000000001e-05" ixy="0.0" ixz="-7.680000000000001e-06" iyy="8.464e-05" iyz="0.0" izz="4.292000000000001e-05"/>
    </inertial>
    <collision>
      <origin xyz="0.0040000000000000036 1.1487338857918417e-10 0.016" rpy="-7.1795860596751346e-09 0.0 0.0"/>
      <geometry>
        <box size="0.04 0.05 0.06"/>
      </geometry>
    </collision>
    <visual>
      <origin xyz="0 0 0" rpy="0 0 0"/>
      <geometry>
        <box size="0 0 0"/>
      </geometry>
    </visual>
  </link>

  <joint name="solid_hlpitch_hj_endpoint_to_HLpitch_T_HLpitch_HJ" type="continuous">
    <parent link="HLpitch_T"/>
    <child link="solid_hlpitch_hj_endpoint"/>
    <axis xyz="1.0 0.0 0.0"/>
    <origin xyz="-0.049900000000000055 -6.49752529557901e-10 -0.0905"/>
    <limit effort="30" velocity="1"/>
  </joint>

  <link name="HLyaw_HJ_C">
    <inertial>
      <mass value="0.16"/>
      <inertia ixx="0.0011796085333333336" ixy="0.0" ixz="0.0001272" iyy="0.0011880801333333335" iyz="0.0" izz="7.307533333333333e-05"/>
    </inertial>
    <collision>
      <origin xyz="0.015000000000000124 -7.17958609230962e-10 -0.1" rpy="-7.1795860596751346e-09 0.0 0.0"/>
      <geometry>
        <box size="0.053 0.04 0.04"/>
      </geometry>
    </collision>
    <collision>
      <origin xyz="0.0 -3.589792907376932e-10 -0.05000000000000002" rpy="-7.1795860596751346e-09 0.0 0.0"/>
      <geometry>
        <box size="0.016 0.054 0.1"/>
      </geometry>
    </collision>
    <visual>
      <origin xyz="0 0 0" rpy="0 0 0"/>
      <geometry>
        <box size="0 0 0"/>
      </geometry>
    </visual>
  </link>

  <joint name="HLyaw_HJ_C_to_solid_hlpitch_hj_endpoint_HLyaw_HJ" type="continuous">
    <parent link="solid_hlpitch_hj_endpoint"/>
    <child link="HLyaw_HJ_C"/>
    <axis xyz="0.0 1.0 0.0"/>
    <origin xyz="0.0 0.0 0.0"/>
    <limit effort="30" velocity="1"/>
  </joint>

  <link name="HLroll_T">
  </link>

  <joint name="HLroll_T_to_HLyaw_HJ_C" type="fixed">
    <parent link="HLyaw_HJ_C"/>
    <child link="HLroll_T"/>
  </joint>

  <link name="HLroll_HJ_C">
    <inertial>
      <mass value="0.14"/>
      <inertia ixx="2.4091950080000004e-05" ixy="0.0" ixz="0.0" iyy="6.532196176743824e-05" iyz="0.0" izz="6.532196176743824e-05"/>
    </inertial>
    <collision>
      <origin xyz="0.017999999999999794 0.0 0.0" rpy="-7.343466530503107e-09 0.0 0.0"/>
      <geometry>
        <box size="0.062 0.04 0.04"/>
      </geometry>
    </collision>
    <visual>
      <origin xyz="0 0 0" rpy="0 0 0"/>
      <geometry>
        <box size="0 0 0"/>
      </geometry>
    </visual>
  </link>

  <joint name="HLroll_HJ_C_to_HLroll_T_HLroll_HJ" type="continuous">
    <parent link="HLroll_T"/>
    <child link="HLroll_HJ_C"/>
    <axis xyz="0.0 0.0 1.0"/>
    <origin xyz="0.0 -1.0582709986106664e-09 -0.1474"/>
    <limit effort="30" velocity="1"/>
  </joint>

  <link name="HLknee_HJ_C">
    <inertial>
      <mass value="0.1"/>
      <inertia ixx="2.1400859279577517e-05" ixy="1.1336610607206597e-10" ixz="0.0" iyy="0.00015875457076637114" iyz="0.0" izz="0.00016875457076672326"/>
    </inertial>
    <collision>
      <origin xyz="-0.03600000000000003 0.0 0.0" rpy="-7.1795860596751346e-09 0.0 0.0"/>
      <geometry>
        <box size="0.05 0.05 0.03"/>
      </geometry>
    </collision>
    <collision>
      <origin xyz="-0.07999999999999963 2.356970000005898e-07 -1.6930901125533637e-15" rpy="2.6372092155466613e-14 1.5708000000000002 7.179586036798469e-09"/>
      <geometry>
        <cylinder length="0.04" radius="0.007"/>
      </geometry>
    </collision>
    <visual>
      <origin xyz="0 0 0" rpy="0 0 0"/>
      <geometry>
        <box size="0 0 0"/>
      </geometry>
    </visual>
  </link>

  <joint name="HLknee_HJ_C_to_HLroll_HJ_C_HLknee_HJ" type="continuous">
    <parent link="HLroll_HJ_C"/>
    <child link="HLknee_HJ_C"/>
    <axis xyz="0.0 1.0 0.0"/>
    <origin xyz="0.0 0.0 0.0"/>
    <limit effort="30" velocity="1"/>
  </joint>

  <link name="HL_TOUCH_T">
  </link>

  <joint name="HL_TOUCH_T_to_HLknee_HJ_C" type="fixed">
    <parent link="HLknee_HJ_C"/>
    <child link="HL_TOUCH_T"/>
  </joint>

  <link name="TS_HL">
    <inertial>
      <mass value="0.001"/>
      <inertia ixx="4.169220176949629e-07" ixy="0.0" ixz="0.0" iyy="4.169220176949629e-07" iyz="0.0" izz="4.169220176949629e-07"/>
    </inertial>
    <collision>
      <origin xyz="-0.12 0.0 0.0" rpy="-7.1795860596751346e-09 0.0 0.0"/>
      <geometry>
        <sphere radius="0.012"/>
      </geometry>
    </collision>
    <visual>
      <origin xyz="-0.11999999999999966 0.0 0.0" rpy="-7.1795860596751346e-09 0.0 0.0"/>
      <geometry>
        <mesh filename="meshes/krock_script_meshes/-root-shape-12.dae" scale="1.0 1.0 1.0"/>
      </geometry>
    </visual>
  </link>

  <joint name="TS_HL_to_HL_TOUCH_T" type="fixed">
    <parent link="HL_TOUCH_T"/>
    <child link="TS_HL"/>
  </joint>

  <link name="LeftHindFoot">
    <visual>
      <origin xyz="-0.06000000000000005 0.0 0.0" rpy="-3.1415926464102073 2.6535897934554242e-06 -3.141592653589774"/>
      <geometry>
        <mesh filename="meshes/krock_script_meshes/-root-shape-9.dae" scale="1.0 1.0 1.0"/>
      </geometry>
    </visual>
  </link>

  <joint name="LeftHindFoot_to_HLknee_HJ_C" type="fixed">
    <parent link="HLknee_HJ_C"/>
    <child link="LeftHindFoot"/>
  </joint>

  <link name="HindLeftKneeMX">
    <visual>
      <origin xyz="0.016000000000000014 0.0 0.0" rpy="-0.007041349155821186 -1.5707953071808323 0.007041349155817526"/>
      <geometry>
        <mesh filename="meshes/krock_script_meshes/-root-shape-4.dae" scale="1.0 1.0 1.0"/>
      </geometry>
    </visual>
  </link>

  <joint name="HindLeftKneeMX_to_HLroll_HJ_C" type="fixed">
    <parent link="HLroll_HJ_C"/>
    <child link="HindLeftKneeMX"/>
  </joint>

  <link name="HindLeftRollMX">
    <visual>
      <origin xyz="0.016000000000000014 -7.323177897422539e-10 -0.10200000000000001" rpy="-1.5707964450283667 1.2541307103930421e-07 1.5707964450283676"/>
      <geometry>
        <mesh filename="meshes/krock_script_meshes/-root-shape-4.dae" scale="1.0 1.0 1.0"/>
      </geometry>
    </visual>
  </link>

  <joint name="HindLeftRollMX_to_HLyaw_HJ_C" type="fixed">
    <parent link="HLyaw_HJ_C"/>
    <child link="HindLeftRollMX"/>
  </joint>

  <link name="HindLeftFemur">
    <visual>
      <origin xyz="0.0 -3.589792907376932e-10 -0.05000000000000002" rpy="-3.139638072586331 1.5707926535755434 -3.139638072586344"/>
      <geometry>
        <mesh filename="meshes/krock_script_meshes/-root-shape-7.dae" scale="1.0 1.0 1.0"/>
      </geometry>
    </visual>
  </link>

  <joint name="HindLeftFemur_to_HLyaw_HJ_C" type="fixed">
    <parent link="HLyaw_HJ_C"/>
    <child link="HindLeftFemur"/>
  </joint>

  <link name="HindLeftYawMX">
    <visual>
      <origin xyz="0.0 1.1487338857918417e-10 0.016" rpy="-3.1415926464102073 2.6535897934554242e-06 -3.141592653589774"/>
      <geometry>
        <mesh filename="meshes/krock_script_meshes/-root-shape-4.dae" scale="1.0 1.0 1.0"/>
      </geometry>
    </visual>
  </link>

  <joint name="HindLeftYawMX_to_solid_hlpitch_hj_endpoint" type="fixed">
    <parent link="solid_hlpitch_hj_endpoint"/>
    <child link="HindLeftYawMX"/>
  </joint>

  <link name="HRpitch_T">
  </link>

  <joint name="HRpitch_T_to_solid_spine2_endpoint" type="fixed">
    <parent link="solid_spine2_endpoint"/>
    <child link="HRpitch_T"/>
  </joint>

  <link name="HRpitch_HJ_C">
    <inertial>
      <mass value="0.14"/>
      <inertia ixx="9.172000000000001e-05" ixy="0.0" ixz="7.680000000000001e-06" iyy="8.464e-05" iyz="0.0" izz="4.292000000000001e-05"/>
    </inertial>
    <collision>
      <origin xyz="0.0040000000000000036 -1.1487338857918417e-10 -0.016" rpy="-7.1795860596751346e-09 0.0 0.0"/>
      <geometry>
        <box size="0.04 0.05 0.06"/>
      </geometry>
    </collision>
    <visual>
      <origin xyz="0 0 0" rpy="0 0 0"/>
      <geometry>
        <box size="0 0 0"/>
      </geometry>
    </visual>
  </link>

  <joint name="HRpitch_HJ_C_to_HRpitch_T_HRpitch_HJ" type="continuous">
    <parent link="HRpitch_T"/>
    <child link="HRpitch_HJ_C"/>
    <axis xyz="1.0 0.0 0.0"/>
    <origin xyz="-0.049900000000000055 6.49752529557901e-10 0.0905"/>
    <limit effort="30" velocity="1"/>
  </joint>

  <link name="HRyaw_HJ_C">
    <inertial>
      <mass value="0.16"/>
      <inertia ixx="0.0011796085333333336" ixy="0.0" ixz="-0.0001272" iyy="0.0011880801333333335" iyz="0.0" izz="7.307533333333333e-05"/>
    </inertial>
    <collision>
      <origin xyz="0.015000000000000124 7.17958609230962e-10 0.1" rpy="-7.1795860596751346e-09 0.0 0.0"/>
      <geometry>
        <box size="0.053 0.04 0.04"/>
      </geometry>
    </collision>
    <collision>
      <origin xyz="0.0 3.589792907376932e-10 0.05000000000000002" rpy="-7.1795860596751346e-09 0.0 0.0"/>
      <geometry>
        <box size="0.016 0.054 0.1"/>
      </geometry>
    </collision>
    <visual>
      <origin xyz="0 0 0" rpy="0 0 0"/>
      <geometry>
        <box size="0 0 0"/>
      </geometry>
    </visual>
  </link>

  <joint name="HRyaw_HJ_C_to_HRpitch_HJ_C_HRyaw_HJ" type="continuous">
    <parent link="HRpitch_HJ_C"/>
    <child link="HRyaw_HJ_C"/>
    <axis xyz="0.0 1.0 0.0"/>
    <origin xyz="0.0 0.0 0.0"/>
    <limit effort="30" velocity="1"/>
  </joint>

  <link name="HRroll_T">
  </link>

  <joint name="HRroll_T_to_HRyaw_HJ_C" type="fixed">
    <parent link="HRyaw_HJ_C"/>
    <child link="HRroll_T"/>
  </joint>

  <link name="HRroll_HJ_C">
    <inertial>
      <mass value="0.14"/>
      <inertia ixx="2.4091950080000004e-05" ixy="0.0" ixz="0.0" iyy="6.532196176743824e-05" iyz="0.0" izz="6.532196176743824e-05"/>
    </inertial>
    <collision>
      <origin xyz="0.017999999999999794 0.0 0.0" rpy="-7.343466530503107e-09 0.0 0.0"/>
      <geometry>
        <box size="0.062 0.04 0.04"/>
      </geometry>
    </collision>
    <visual>
      <origin xyz="0 0 0" rpy="0 0 0"/>
      <geometry>
        <box size="0 0 0"/>
      </geometry>
    </visual>
  </link>

  <joint name="HRroll_HJ_C_to_HRroll_T_HRroll_HJ" type="continuous">
    <parent link="HRroll_T"/>
    <child link="HRroll_HJ_C"/>
    <axis xyz="0.0 0.0 1.0"/>
    <origin xyz="0.0 1.0582709986106664e-09 0.1474"/>
    <limit effort="30" velocity="1"/>
  </joint>

  <link name="HRknee_HJ_C">
    <inertial>
      <mass value="0.01"/>
      <inertia ixx="2.1400859279577517e-05" ixy="1.1336610607206597e-10" ixz="0.0" iyy="0.00015875457076637114" iyz="0.0" izz="0.00016875457076672326"/>
    </inertial>
    <collision>
      <origin xyz="-0.03600000000000003 0.0 0.0" rpy="-7.1795860596751346e-09 0.0 0.0"/>
      <geometry>
        <box size="0.05 0.05 0.03"/>
      </geometry>
    </collision>
    <collision>
      <origin xyz="-0.07999999999999963 2.356970000005898e-07 -1.6930901125533637e-15" rpy="2.6372092155466613e-14 1.5708000000000002 7.179586036798469e-09"/>
      <geometry>
        <cylinder length="0.04" radius="0.007"/>
      </geometry>
    </collision>
    <visual>
      <origin xyz="0 0 0" rpy="0 0 0"/>
      <geometry>
        <box size="0 0 0"/>
      </geometry>
    </visual>
  </link>

  <joint name="HRknee_HJ_C_to_HRroll_HJ_C_HRknee_HJ" type="continuous">
    <parent link="HRroll_HJ_C"/>
    <child link="HRknee_HJ_C"/>
    <axis xyz="0.0 1.0 0.0"/>
    <origin xyz="0.0 0.0 0.0"/>
    <limit effort="30" velocity="1"/>
  </joint>

  <link name="HR_TOUCH_T">
  </link>

  <joint name="HR_TOUCH_T_to_HRknee_HJ_C" type="fixed">
    <parent link="HRknee_HJ_C"/>
    <child link="HR_TOUCH_T"/>
  </joint>

  <link name="TS_HR">
    <inertial>
      <mass value="0.001"/>
      <inertia ixx="4.169220176949629e-07" ixy="0.0" ixz="0.0" iyy="4.169220176949629e-07" iyz="0.0" izz="4.169220176949629e-07"/>
    </inertial>
    <collision>
      <origin xyz="-0.12 0.0 0.0" rpy="-7.1795860596751346e-09 0.0 0.0"/>
      <geometry>
        <sphere radius="0.012"/>
      </geometry>
    </collision>
    <visual>
      <origin xyz="-0.11999999999999966 0.0 0.0" rpy="-7.1795860596751346e-09 0.0 0.0"/>
      <geometry>
        <mesh filename="meshes/krock_script_meshes/-root-shape-13.dae" scale="1.0 1.0 1.0"/>
      </geometry>
    </visual>
  </link>

  <joint name="TS_HR_to_HR_TOUCH_T" type="fixed">
    <parent link="HR_TOUCH_T"/>
    <child link="TS_HR"/>
  </joint>

  <link name="RightHindFoot">
    <visual>
      <origin xyz="-0.06000000000000005 0.0 0.0" rpy="-3.1415926464102073 2.6535897934554242e-06 -3.141592653589774"/>
      <geometry>
        <mesh filename="meshes/krock_script_meshes/-root-shape-9.dae" scale="1.0 1.0 1.0"/>
      </geometry>
    </visual>
  </link>

  <joint name="RightHindFoot_to_HRknee_HJ_C" type="fixed">
    <parent link="HRknee_HJ_C"/>
    <child link="RightHindFoot"/>
  </joint>

  <link name="HindRightKneeMX">
    <visual>
      <origin xyz="0.016000000000000014 0.0 0.0" rpy="-0.007041349155821186 -1.5707953071808323 0.007041349155817526"/>
      <geometry>
        <mesh filename="meshes/krock_script_meshes/-root-shape-4.dae" scale="1.0 1.0 1.0"/>
      </geometry>
    </visual>
  </link>

  <joint name="HindRightKneeMX_to_HRroll_HJ_C" type="fixed">
    <parent link="HRroll_HJ_C"/>
    <child link="HindRightKneeMX"/>
  </joint>

  <link name="HindRightRollMX">
    <visual>
      <origin xyz="0.016000000000000014 7.323177897422539e-10 0.10200000000000001" rpy="-1.5707964450283667 1.2541307103930421e-07 1.5707964450283676"/>
      <geometry>
        <mesh filename="meshes/krock_script_meshes/-root-shape-4.dae" scale="1.0 1.0 1.0"/>
      </geometry>
    </visual>
  </link>

  <joint name="HindRightRollMX_to_HRyaw_HJ_C" type="fixed">
    <parent link="HRyaw_HJ_C"/>
    <child link="HindRightRollMX"/>
  </joint>

  <link name="HindRightFemur">
    <visual>
      <origin xyz="0.0 3.589792907376932e-10 0.05000000000000002" rpy="-3.139638072586331 1.5707926535755434 -3.139638072586344"/>
      <geometry>
        <mesh filename="meshes/krock_script_meshes/-root-shape-7.dae" scale="1.0 1.0 1.0"/>
      </geometry>
    </visual>
  </link>

  <joint name="HindRightFemur_to_HRyaw_HJ_C" type="fixed">
    <parent link="HRyaw_HJ_C"/>
    <child link="HindRightFemur"/>
  </joint>

  <link name="HindRightYawMX">
    <visual>
      <origin xyz="0.0 -1.1487338857918417e-10 -0.016" rpy="-3.1415926464102073 2.6535897934554242e-06 -3.141592653589774"/>
      <geometry>
        <mesh filename="meshes/krock_script_meshes/-root-shape-4.dae" scale="1.0 1.0 1.0"/>
      </geometry>
    </visual>
  </link>

  <joint name="HindRightYawMX_to_HRpitch_HJ_C" type="fixed">
    <parent link="HRpitch_HJ_C"/>
    <child link="HindRightYawMX"/>
  </joint>

  <link name="HindLeftPitchMX">
    <visual>
      <origin xyz="0.0 -5.025710125838856e-10 -0.07" rpy="1.5707953853639374 1.570794443285764 -1.5707953918476767"/>
      <geometry>
        <mesh filename="meshes/krock_script_meshes/-root-shape-6.dae" scale="1.0 1.0 1.0"/>
      </geometry>
    </visual>
  </link>

  <joint name="HindLeftPitchMX_to_solid_spine2_endpoint" type="fixed">
    <parent link="solid_spine2_endpoint"/>
    <child link="HindLeftPitchMX"/>
  </joint>

  <link name="HindRightPitchMX">
    <visual>
      <origin xyz="0.0 5.025710125838856e-10 0.07" rpy="-3.139638072586331 -1.5707926535755432 3.139638072586344"/>
      <geometry>
        <mesh filename="meshes/krock_script_meshes/-root-shape-6.dae" scale="1.0 1.0 1.0"/>
      </geometry>
    </visual>
  </link>

  <joint name="HindRightPitchMX_to_solid_spine2_endpoint" type="fixed">
    <parent link="solid_spine2_endpoint"/>
    <child link="HindRightPitchMX"/>
  </joint>

  <link name="HindGirdleSpineMX">
    <visual>
      <origin xyz="-0.017999999999999794 0.0 0.0" rpy="-3.139638072586331 1.5707926535755434 -3.139638072586344"/>
      <geometry>
        <mesh filename="meshes/krock_script_meshes/-root-shape-4.dae" scale="1.0 1.0 1.0"/>
      </geometry>
    </visual>
  </link>

  <joint name="HindGirdleSpineMX_to_solid_spine2_endpoint" type="fixed">
    <parent link="solid_spine2_endpoint"/>
    <child link="HindGirdleSpineMX"/>
  </joint>

  <link name="HindGirdleMain">
    <visual>
      <origin xyz="-0.06499999999999995 0.0 0.0" rpy="-3.139638072586331 -1.5707926535755432 3.139638072586344"/>
      <geometry>
        <mesh filename="meshes/krock_script_meshes/-root-shape-3.dae" scale="1.0 1.0 1.0"/>
      </geometry>
    </visual>
  </link>

  <joint name="HindGirdleMain_to_solid_spine2_endpoint" type="fixed">
    <parent link="solid_spine2_endpoint"/>
    <child link="HindGirdleMain"/>
  </joint>

  <link name="SPINE_Transform">
    <visual>
      <origin xyz="-0.1200000000000001 -1.5292517252518678e-10 -0.0213" rpy="-3.139638072586331 1.5707926535755434 -3.139638072586344"/>
      <geometry>
        <mesh filename="meshes/krock_script_meshes/-root-shape-8.dae" scale="1.0 1.0 1.0"/>
      </geometry>
    </visual>
  </link>

  <joint name="SPINE_Transform_to_solid_spine1_endpoint" type="fixed">
    <parent link="solid_spine1_endpoint"/>
    <child link="SPINE_Transform"/>
  </joint>

  <link name="FLpitch_T">
  </link>

  <joint name="FLpitch_T_to_krock2" type="fixed">
    <parent link="krock2"/>
    <child link="FLpitch_T"/>
  </joint>

  <link name="solid_flpitch_hj_endpoint">
    <inertial>
      <mass value="0.14"/>
      <inertia ixx="9.172000000000001e-05" ixy="0.0" ixz="-7.680000000000001e-06" iyy="8.464e-05" iyz="0.0" izz="4.292000000000001e-05"/>
    </inertial>
    <collision>
      <origin xyz="0.0040000000000000036 1.1487338857918417e-10 0.016" rpy="-7.1795860596751346e-09 0.0 0.0"/>
      <geometry>
        <box size="0.04 0.05 0.06"/>
      </geometry>
    </collision>
    <visual>
      <origin xyz="0 0 0" rpy="0 0 0"/>
      <geometry>
        <box size="0 0 0"/>
      </geometry>
    </visual>
  </link>

  <joint name="solid_flpitch_hj_endpoint_to_FLpitch_T_FLpitch_HJ" type="continuous">
    <parent link="FLpitch_T"/>
    <child link="solid_flpitch_hj_endpoint"/>
    <axis xyz="1.0 0.0 0.0"/>
    <origin xyz="0.0 -6.49752529557901e-10 -0.0905"/>
    <limit effort="30" velocity="1"/>
  </joint>

  <link name="solid_flyaw_hj_endpoint">
    <inertial>
      <mass value="0.16"/>
      <inertia ixx="0.0011796085333333336" ixy="0.0" ixz="-0.0001272" iyy="0.0011880801333333335" iyz="0.0" izz="7.307533333333333e-05"/>
    </inertial>
    <collision>
      <origin xyz="-0.015000000000000124 -7.17958609230962e-10 -0.1" rpy="-7.1795860596751346e-09 0.0 0.0"/>
      <geometry>
        <box size="0.053 0.04 0.04"/>
      </geometry>
    </collision>
    <collision>
      <origin xyz="0.0 -3.589792907376932e-10 -0.05000000000000002" rpy="-7.1795860596751346e-09 0.0 0.0"/>
      <geometry>
        <box size="0.016 0.054 0.1"/>
      </geometry>
    </collision>
    <visual>
      <origin xyz="0 0 0" rpy="0 0 0"/>
      <geometry>
        <box size="0 0 0"/>
      </geometry>
    </visual>
  </link>

  <joint name="solid_flyaw_hj_endpoint_to_solid_flpitch_hj_endpoint_FLyaw_HJ" type="continuous">
    <parent link="solid_flpitch_hj_endpoint"/>
    <child link="solid_flyaw_hj_endpoint"/>
    <axis xyz="0.0 1.0 0.0"/>
    <origin xyz="0.0 0.0 0.0"/>
    <limit effort="30" velocity="1"/>
  </joint>

  <link name="FLroll_T">
  </link>

  <joint name="FLroll_T_to_solid_flyaw_hj_endpoint" type="fixed">
    <parent link="solid_flyaw_hj_endpoint"/>
    <child link="FLroll_T"/>
  </joint>

  <link name="FLroll_HJ_C">
    <inertial>
      <mass value="0.14"/>
      <inertia ixx="2.4091950080000004e-05" ixy="0.0" ixz="0.0" iyy="6.532196176743824e-05" iyz="0.0" izz="6.532196176743824e-05"/>
    </inertial>
    <collision>
      <origin xyz="-0.017999999999999794 0.0 0.0" rpy="-7.343466530503107e-09 0.0 0.0"/>
      <geometry>
        <box size="0.062 0.04 0.04"/>
      </geometry>
    </collision>
    <visual>
      <origin xyz="0 0 0" rpy="0 0 0"/>
      <geometry>
        <box size="0 0 0"/>
      </geometry>
    </visual>
  </link>

  <joint name="FLroll_HJ_C_to_FLroll_T_FLroll_HJ" type="continuous">
    <parent link="FLroll_T"/>
    <child link="FLroll_HJ_C"/>
    <axis xyz="0.0 0.0 1.0"/>
    <origin xyz="0.0 -1.0582709986106664e-09 -0.1474"/>
    <limit effort="30" velocity="1"/>
  </joint>

  <link name="FLknee_HJ_C">
    <inertial>
      <mass value="0.1"/>
      <inertia ixx="2.1400859279479204e-05" ixy="-1.0074912162980823e-10" ixz="0.0" iyy="0.00015875457076637114" iyz="0.0" izz="0.00016875457076662495"/>
    </inertial>
    <collision>
      <origin xyz="0.03600000000000003 0.0 0.0" rpy="-7.1795860596751346e-09 0.0 0.0"/>
      <geometry>
        <box size="0.05 0.05 0.03"/>
      </geometry>
    </collision>
    <collision>
      <origin xyz="0.08000000000000007 1.9896494998783432e-07 -1.4155343563970746e-15" rpy="2.6372092155466613e-14 1.5708000000000002 7.179586036798469e-09"/>
      <geometry>
        <cylinder length="0.04" radius="0.007"/>
      </geometry>
    </collision>
    <visual>
      <origin xyz="0 0 0" rpy="0 0 0"/>
      <geometry>
        <box size="0 0 0"/>
      </geometry>
    </visual>
  </link>

  <joint name="FLknee_HJ_C_to_FLroll_HJ_C_FLknee_HJ" type="continuous">
    <parent link="FLroll_HJ_C"/>
    <child link="FLknee_HJ_C"/>
    <axis xyz="0.0 1.0 0.0"/>
    <origin xyz="0.0 0.0 0.0"/>
    <limit effort="30" velocity="1"/>
  </joint>

  <link name="FL_TOUCH_T">
  </link>

  <joint name="FL_TOUCH_T_to_FLknee_HJ_C" type="fixed">
    <parent link="FLknee_HJ_C"/>
    <child link="FL_TOUCH_T"/>
  </joint>

  <link name="TS_FL">
    <inertial>
      <mass value="0.001"/>
      <inertia ixx="4.169220176949629e-07" ixy="0.0" ixz="0.0" iyy="4.169220176949629e-07" iyz="0.0" izz="4.169220176949629e-07"/>
    </inertial>
    <collision>
      <origin xyz="0.12 0.0 0.0" rpy="-7.1795860596751346e-09 0.0 0.0"/>
      <geometry>
        <sphere radius="0.012"/>
      </geometry>
    </collision>
    <visual>
      <origin xyz="0.1200000000000001 0.0 0.0" rpy="-7.1795860596751346e-09 0.0 0.0"/>
      <geometry>
        <mesh filename="meshes/krock_script_meshes/-root-shape-14.dae" scale="1.0 1.0 1.0"/>
      </geometry>
    </visual>
  </link>

  <joint name="TS_FL_to_FL_TOUCH_T" type="fixed">
    <parent link="FL_TOUCH_T"/>
    <child link="TS_FL"/>
  </joint>

  <link name="LeftFrontFoot">
    <visual>
      <origin xyz="0.06000000000000005 0.0 0.0" rpy="-7.1795860596751346e-09 0.0 0.0"/>
      <geometry>
        <mesh filename="meshes/krock_script_meshes/-root-shape-9.dae" scale="1.0 1.0 1.0"/>
      </geometry>
    </visual>
  </link>

  <joint name="LeftFrontFoot_to_FLknee_HJ_C" type="fixed">
    <parent link="FLknee_HJ_C"/>
    <child link="LeftFrontFoot"/>
  </joint>

  <link name="FrontLeftKneeMX">
    <visual>
      <origin xyz="-0.016000000000000014 0.0 0.0" rpy="-3.139638072586331 1.5707926535755434 -3.139638072586344"/>
      <geometry>
        <mesh filename="meshes/krock_script_meshes/-root-shape-4.dae" scale="1.0 1.0 1.0"/>
      </geometry>
    </visual>
  </link>

  <joint name="FrontLeftKneeMX_to_FLroll_HJ_C" type="fixed">
    <parent link="FLroll_HJ_C"/>
    <child link="FrontLeftKneeMX"/>
  </joint>

  <link name="FrontLeftRollMX">
    <visual>
      <origin xyz="-0.016000000000000014 -7.323177897422539e-10 -0.10200000000000001" rpy="-1.5707964450283667 -1.2541307103930421e-07 -1.5707964450283676"/>
      <geometry>
        <mesh filename="meshes/krock_script_meshes/-root-shape-4.dae" scale="1.0 1.0 1.0"/>
      </geometry>
    </visual>
  </link>

  <joint name="FrontLeftRollMX_to_solid_flyaw_hj_endpoint" type="fixed">
    <parent link="solid_flyaw_hj_endpoint"/>
    <child link="FrontLeftRollMX"/>
  </joint>

  <link name="FrontLeftFemur">
    <visual>
      <origin xyz="0.0 -3.589792907376932e-10 -0.05000000000000002" rpy="-3.139638072586331 1.5707926535755434 -3.139638072586344"/>
      <geometry>
        <mesh filename="meshes/krock_script_meshes/-root-shape-7.dae" scale="1.0 1.0 1.0"/>
      </geometry>
    </visual>
  </link>

  <joint name="FrontLeftFemur_to_solid_flyaw_hj_endpoint" type="fixed">
    <parent link="solid_flyaw_hj_endpoint"/>
    <child link="FrontLeftFemur"/>
  </joint>

  <link name="FrontLeftYawMX">
    <visual>
      <origin xyz="0.0 1.1487338857918417e-10 0.016" rpy="-3.1415926464102073 2.6535897934554242e-06 -3.141592653589774"/>
      <geometry>
        <mesh filename="meshes/krock_script_meshes/-root-shape-4.dae" scale="1.0 1.0 1.0"/>
      </geometry>
    </visual>
  </link>

  <joint name="FrontLeftYawMX_to_solid_flpitch_hj_endpoint" type="fixed">
    <parent link="solid_flpitch_hj_endpoint"/>
    <child link="FrontLeftYawMX"/>
  </joint>

  <link name="FRpitch_T">
  </link>

  <joint name="FRpitch_T_to_krock2" type="fixed">
    <parent link="krock2"/>
    <child link="FRpitch_T"/>
  </joint>

  <link name="FRpitch_HJ_C">
    <inertial>
      <mass value="0.14"/>
      <inertia ixx="9.172000000000001e-05" ixy="0.0" ixz="7.680000000000001e-06" iyy="8.464e-05" iyz="0.0" izz="4.292000000000001e-05"/>
    </inertial>
    <collision>
      <origin xyz="0.0040000000000000036 -1.1487338857918417e-10 -0.016" rpy="-7.1795860596751346e-09 0.0 0.0"/>
      <geometry>
        <box size="0.04 0.05 0.06"/>
      </geometry>
    </collision>
    <visual>
      <origin xyz="0 0 0" rpy="0 0 0"/>
      <geometry>
        <box size="0 0 0"/>
      </geometry>
    </visual>
  </link>

  <joint name="FRpitch_HJ_C_to_FRpitch_T_FRpitch_HJ" type="continuous">
    <parent link="FRpitch_T"/>
    <child link="FRpitch_HJ_C"/>
    <axis xyz="1.0 0.0 0.0"/>
    <origin xyz="0.0 6.49752529557901e-10 0.0905"/>
    <limit effort="30" velocity="1"/>
  </joint>

  <link name="FRyaw_HJ_C">
    <inertial>
      <mass value="0.16"/>
      <inertia ixx="0.0011796085333333336" ixy="0.0" ixz="0.0001272" iyy="0.0011880801333333335" iyz="0.0" izz="7.307533333333333e-05"/>
    </inertial>
    <collision>
      <origin xyz="-0.015000000000000124 7.17958609230962e-10 0.1" rpy="-7.1795860596751346e-09 0.0 0.0"/>
      <geometry>
        <box size="0.053 0.04 0.04"/>
      </geometry>
    </collision>
    <collision>
      <origin xyz="0.0 3.589792907376932e-10 0.05000000000000002" rpy="-7.1795860596751346e-09 0.0 0.0"/>
      <geometry>
        <box size="0.016 0.054 0.1"/>
      </geometry>
    </collision>
    <visual>
      <origin xyz="0 0 0" rpy="0 0 0"/>
      <geometry>
        <box size="0 0 0"/>
      </geometry>
    </visual>
  </link>

  <joint name="FRyaw_HJ_C_to_FRpitch_HJ_C_FRyaw_HJ" type="continuous">
    <parent link="FRpitch_HJ_C"/>
    <child link="FRyaw_HJ_C"/>
    <axis xyz="0.0 1.0 0.0"/>
    <origin xyz="0.0 0.0 0.0"/>
    <limit effort="30" velocity="1"/>
  </joint>

  <link name="FRroll_T">
  </link>

  <joint name="FRroll_T_to_FRyaw_HJ_C" type="fixed">
    <parent link="FRyaw_HJ_C"/>
    <child link="FRroll_T"/>
  </joint>

  <link name="FRroll_HJ_C">
    <inertial>
      <mass value="0.14"/>
      <inertia ixx="2.4091950080000004e-05" ixy="0.0" ixz="0.0" iyy="6.532196176743824e-05" iyz="0.0" izz="6.532196176743824e-05"/>
    </inertial>
    <collision>
      <origin xyz="-0.017999999999999794 0.0 0.0" rpy="-7.343466530503107e-09 0.0 0.0"/>
      <geometry>
        <box size="0.062 0.04 0.04"/>
      </geometry>
    </collision>
    <visual>
      <origin xyz="0 0 0" rpy="0 0 0"/>
      <geometry>
        <box size="0 0 0"/>
      </geometry>
    </visual>
  </link>

  <joint name="FRroll_HJ_C_to_FRroll_T_FRroll_HJ" type="continuous">
    <parent link="FRroll_T"/>
    <child link="FRroll_HJ_C"/>
    <axis xyz="0.0 0.0 1.0"/>
    <origin xyz="0.0 1.0582709986106664e-09 0.1474"/>
    <limit effort="30" velocity="1"/>
  </joint>

  <link name="FRknee_HJ_C">
    <inertial>
      <mass value="0.1"/>
      <inertia ixx="2.1400859279577517e-05" ixy="-1.1884339293583494e-10" ixz="0.0" iyy="0.00015875457076637114" iyz="0.0" izz="0.00016875457076672326"/>
    </inertial>
    <collision>
      <origin xyz="0.03600000000000003 0.0 0.0" rpy="-7.1795860596751346e-09 0.0 0.0"/>
      <geometry>
        <box size="0.05 0.05 0.03"/>
      </geometry>
    </collision>
    <collision>
      <origin xyz="0.08000000000000007 2.356970000005898e-07 -1.6930901125533637e-15" rpy="2.6372092155466613e-14 1.5708000000000002 7.179586036798469e-09"/>
      <geometry>
        <cylinder length="0.04" radius="0.007"/>
      </geometry>
    </collision>
    <visual>
      <origin xyz="0 0 0" rpy="0 0 0"/>
      <geometry>
        <box size="0 0 0"/>
      </geometry>
    </visual>
  </link>

  <joint name="FRknee_HJ_C_to_FRroll_HJ_C_FRknee_HJ" type="continuous">
    <parent link="FRroll_HJ_C"/>
    <child link="FRknee_HJ_C"/>
    <axis xyz="0.0 1.0 0.0"/>
    <origin xyz="0.0 0.0 0.0"/>
    <limit effort="30" velocity="1"/>
  </joint>

  <link name="FR_TOUCH_T">
  </link>

  <joint name="FR_TOUCH_T_to_FRknee_HJ_C" type="fixed">
    <parent link="FRknee_HJ_C"/>
    <child link="FR_TOUCH_T"/>
  </joint>

  <link name="TS_FR">
    <inertial>
      <mass value="0.001"/>
      <inertia ixx="4.169220176949629e-07" ixy="0.0" ixz="0.0" iyy="4.169220176949629e-07" iyz="0.0" izz="4.169220176949629e-07"/>
    </inertial>
    <collision>
      <origin xyz="0.12 0.0 0.0" rpy="-7.1795860596751346e-09 0.0 0.0"/>
      <geometry>
        <sphere radius="0.012"/>
      </geometry>
    </collision>
    <visual>
      <origin xyz="0.1200000000000001 0.0 0.0" rpy="-7.1795860596751346e-09 0.0 0.0"/>
      <geometry>
        <mesh filename="meshes/krock_script_meshes/-root-shape-15.dae" scale="1.0 1.0 1.0"/>
      </geometry>
    </visual>
  </link>

  <joint name="TS_FR_to_FR_TOUCH_T" type="fixed">
    <parent link="FR_TOUCH_T"/>
    <child link="TS_FR"/>
  </joint>

  <link name="RightFrontFoot">
    <visual>
      <origin xyz="0.06000000000000005 0.0 0.0" rpy="-7.1795860596751346e-09 0.0 0.0"/>
      <geometry>
        <mesh filename="meshes/krock_script_meshes/-root-shape-9.dae" scale="1.0 1.0 1.0"/>
      </geometry>
    </visual>
  </link>

  <joint name="RightFrontFoot_to_FRknee_HJ_C" type="fixed">
    <parent link="FRknee_HJ_C"/>
    <child link="RightFrontFoot"/>
  </joint>

  <link name="FrontRightKneeMX">
    <visual>
      <origin xyz="-0.016000000000000014 0.0 0.0" rpy="-3.139638072586331 1.5707926535755434 -3.139638072586344"/>
      <geometry>
        <mesh filename="meshes/krock_script_meshes/-root-shape-4.dae" scale="1.0 1.0 1.0"/>
      </geometry>
    </visual>
  </link>

  <joint name="FrontRightKneeMX_to_FRroll_HJ_C" type="fixed">
    <parent link="FRroll_HJ_C"/>
    <child link="FrontRightKneeMX"/>
  </joint>

  <link name="FrontRightRollMX">
    <visual>
      <origin xyz="-0.016000000000000014 7.323177897422539e-10 0.10200000000000001" rpy="-1.5707964450283667 -1.2541307103930421e-07 -1.5707964450283676"/>
      <geometry>
        <mesh filename="meshes/krock_script_meshes/-root-shape-4.dae" scale="1.0 1.0 1.0"/>
      </geometry>
    </visual>
  </link>

  <joint name="FrontRightRollMX_to_FRyaw_HJ_C" type="fixed">
    <parent link="FRyaw_HJ_C"/>
    <child link="FrontRightRollMX"/>
  </joint>

  <link name="FrontRightFemur">
    <visual>
      <origin xyz="0.0 3.589792907376932e-10 0.05000000000000002" rpy="-3.139638072586331 1.5707926535755434 -3.139638072586344"/>
      <geometry>
        <mesh filename="meshes/krock_script_meshes/-root-shape-7.dae" scale="1.0 1.0 1.0"/>
      </geometry>
    </visual>
  </link>

  <joint name="FrontRightFemur_to_FRyaw_HJ_C" type="fixed">
    <parent link="FRyaw_HJ_C"/>
    <child link="FrontRightFemur"/>
  </joint>

  <link name="FrontRightYawMX">
    <visual>
      <origin xyz="0.0 -1.1487338857918417e-10 -0.016" rpy="-3.1415926464102073 2.6535897934554242e-06 -3.141592653589774"/>
      <geometry>
        <mesh filename="meshes/krock_script_meshes/-root-shape-4.dae" scale="1.0 1.0 1.0"/>
      </geometry>
    </visual>
  </link>

  <joint name="FrontRightYawMX_to_FRpitch_HJ_C" type="fixed">
    <parent link="FRpitch_HJ_C"/>
    <child link="FrontRightYawMX"/>
  </joint>

</robot>
