<COLLADA xmlns="http://www.collada.org/2005/11/COLLADASchema" version="1.4.1">
  <asset>
    <created>2020-02-20T17:43:29.348745</created>
    <modified>2020-02-20T17:43:29.348753</modified>
    <up_axis>Y_UP</up_axis>
  </asset>
  <library_effects>
    <effect name="effect0" id="effect0">
      <profile_COMMON>
        <technique sid="common">
          <phong>
            <emission>
              <color>0.0 0.0 0.0 1.0</color>
            </emission>
            <ambient>
              <color>0.0 0.0 0.0 1.0</color>
            </ambient>
            <diffuse>
              <color>0.899999976158 0.899999976158 0.899999976158 1.0</color>
            </diffuse>
            <specular>
              <color>0.10000000149 0.10000000149 0.10000000149 1.0</color>
            </specular>
            <shininess>
              <float>0.0</float>
            </shininess>
            <reflective>
              <color>0.0 0.0 0.0 1.0</color>
            </reflective>
            <reflectivity>
              <float>0.0</float>
            </reflectivity>
            <transparent>
              <color>0.0 0.0 0.0 1.0</color>
            </transparent>
            <transparency>
              <float>1.0</float>
            </transparency>
            <index_of_refraction>
              <float>1.0</float>
            </index_of_refraction>
          </phong>
        </technique>
        <extra>
          <technique profile="GOOGLEEARTH">
            <double_sided>1</double_sided>
          </technique>
        </extra>
      </profile_COMMON>
    </effect>
  </library_effects>
  <library_geometries>
    <geometry id="geometry0" name="shape-1f7c4030540011eaa39a3417ebb95ed2">
      <mesh>
        <source id="shape-1f7c4030540011eaa39a3417ebb95ed2-normal">
          <float_array count="312" id="shape-1f7c4030540011eaa39a3417ebb95ed2-normal-array">0 1 0 0 1 0 0 -1 0 0 -1 -0 1 0 0 1 -0 0 -0.9028605 0.4299336 0 -0.9028544 0.4299465 0 -0.9028605 0.4299336 0 -0.9028482 0.4299593 0 -0.9028544 0.4299465 0 0.1258921 -0.9920439 0 0.0731076 -0.9972003 0.01571383 0.02009942 -0.9993054 0.03137958 -0.6203125 -0.7840831 -0.02064111 -0.6605664 -0.7496355 -0.04121555 -0.5780548 -0.815998 0 -0.9871522 -0.1584419 0.02065714 -0.9943723 -0.1059422 0 -0.9999444 -0.001167074 0.01047747 -0.9767386 -0.2104291 0.04124745 -0.9497059 0.3129623 -0.01064298 -0.9692269 0.2461691 -2.216113e-05 -0.9113061 0.4117294 -3.226967e-05 -0.8444111 0.5356467 -0.007239848 -0.7120572 0.7021124 -0.003579011 -0.7716101 0.6360732 -0.005349348 -0.620331 0.7842687 -0.01058608 -0.4893256 0.8720712 -0.007236074 -0.3931317 0.9194822 0 -0.2585302 0.9658945 -0.01448667 0.02010581 0.9996971 -0.01419651 -0.08584738 0.9960849 -0.02109564 0.1258288 0.9918277 -0.02109564 0.2300982 0.9731674 -0 -0.9028605 -0.4299336 0 -0.9028544 -0.4299465 0 -0.9028605 -0.4299336 0 -0.9028482 -0.4299593 0 -0.9028544 -0.4299465 0 -0.3827447 -0.9238541 0 -0.3827447 -0.9238541 0 0.965979 0.2586206 -0 0.3805112 0.9184629 0.1078757 -0.6086344 0.7934508 0 0.1533253 4.235039e-05 -0.9881757 0.1533313 2.117519e-05 -0.9881749 0.1024906 1.415404e-05 -0.994734 0.1533313 -2.117519e-05 -0.9881749 0.1024906 -1.415404e-05 -0.994734 0.1533253 -4.235039e-05 -0.9881757 0 0 -1 0 0 -1 -0 0 -1 0.1533253 -4.235039e-05 0.9881757 0.1533313 -2.117519e-05 0.9881749 0.1024906 -1.415404e-05 0.994734 0.1533313 2.117519e-05 0.9881749 0.1024906 1.415404e-05 0.994734 0.1533253 4.235039e-05 0.9881757 -0 0 1 0 -0 1 0 0 1 0 -0 1 0.09716109 0.9916753 -0.08449797 0 1 -0 0.04933472 0.9987823 0 -1 0 0 -1 0 0 0.09716109 -0.9916753 0.08449797 -0 -1 -0 0.04933472 -0.9987823 0 -0 0 1 0 0 1 0 0 1 0 0 1 0 0 -1 0 0 -1 0.2268228 -0.973936 6.809761e-05 0.1455801 -0.9812121 0.1266064 0.3719513 -0.892405 0.2554712 0.3724484 -0.8935555 -0.2506805 0.2399859 -0.9623368 -0.1277284 0.5397835 -0.8021181 -0.255422 0.5404439 -0.8031408 0.2507694 0.687479 -0.681496 -0.2508701 0.8293316 -0.5436819 -0.128915 0.786366 -0.4141753 0.4583529 0.8822555 -0.4072869 0.2360988 0.8501282 -0.5214227 0.07348673 0.9264103 -0.3765155 0 0.9264103 0.3765155 0 0.8822555 0.4072869 -0.2360988 0.8501282 0.5214227 -0.07348673 0.786366 0.4141753 -0.4583529 0.8293316 0.5436819 0.128915 0.687479 0.681496 0.2508701 0.5397835 0.8021181 0.255422 0.5404439 0.8031408 -0.2507694 0.3719513 0.892405 -0.2554712 0.3724484 0.8935555 0.2506805 0.2399859 0.9623368 0.1277284 0.1455801 0.9812121 -0.1266064 0.2268228 0.973936 -6.809761e-05</float_array>
          <technique_common>
            <accessor count="104" source="#shape-1f7c4030540011eaa39a3417ebb95ed2-normal-array" stride="3">
              <param type="float" name="X"/>
              <param type="float" name="Y"/>
              <param type="float" name="Z"/>
            </accessor>
          </technique_common>
        </source>
        <source id="shape-1f7c4030540011eaa39a3417ebb95ed2-vertex">
          <float_array count="156" id="shape-1f7c4030540011eaa39a3417ebb95ed2-vertex-array">-0.040042 0.003963 -0.003317 -0.039641 0.005826 0.015683 -0.038856 -0.001542 -0.003317 -0.038856 -0.001542 0.015683 -0.038856 0.007562 -0.003317 -0.037724 0.009095 0.015683 -0.034631 -0.005265 0.015683 -0.034631 0.011285 -0.003317 -0.034631 0.011285 0.015683 -0.03281 -0.005825 -0.003317 -0.032153 0.004071 -0.003317 -0.032153 0.004071 0.015683 -0.031481 0.001561 0.015683 -0.030911 0.012008 0.015683 -0.029592 0.00301 -0.003317 -0.029592 0.00301 0.015683 -0.027223 -0.005116 -0.003317 -0.027223 -0.005116 0.015683 -0.027223 0.011136 -0.003317 -0.027223 0.011136 0.015683 -0.020092 -0.02009 -0.003317 -0.020092 -0.02009 0.015683 -0.020092 0.02611 -0.003317 -0.020092 0.02611 0.015683 -0.016092 -0.02849 -0.002696 -0.016092 -0.02849 0.015062 -0.016092 0.03451 -0.002696 -0.016092 0.03451 0.015062 0.008908 -0.02849 0.001183 0.008908 -0.02849 0.011183 0.008908 0.03451 0.001183 0.008908 0.03451 0.011183 -0.005185 -0.02849 0.005462 -0.005185 -0.02849 0.008462 -0.005185 0.03651 0.005462 -0.005185 0.03651 0.008462 0.304815 -0.02849 0.005462 0.304815 -0.02849 0.008462 0.304815 0.03651 0.005462 0.304815 0.03651 0.008462 0.312661 -0.027713 0.005462 0.312661 0.035733 0.008462 0.320203 -0.025411 0.008462 0.320203 0.033431 0.005462 0.327147 -0.021675 0.005462 0.327147 0.029695 0.008462 0.333224 -0.016649 0.008462 0.333224 0.024669 0.005462 0.338196 -0.010529 0.005462 0.338196 0.018549 0.008462 0.344105 0.00401 0.005462 0.344105 0.00401 0.008462</float_array>
          <technique_common>
            <accessor count="52" source="#shape-1f7c4030540011eaa39a3417ebb95ed2-vertex-array" stride="3">
              <param type="float" name="X"/>
              <param type="float" name="Y"/>
              <param type="float" name="Z"/>
            </accessor>
          </technique_common>
        </source>
        <vertices id="shape-1f7c4030540011eaa39a3417ebb95ed2-vertex-vertices">
          <input source="#shape-1f7c4030540011eaa39a3417ebb95ed2-vertex" semantic="POSITION"/>
        </vertices>
        <triangles count="100" material="materialref">
          <input source="#shape-1f7c4030540011eaa39a3417ebb95ed2-normal" semantic="NORMAL" offset="1"/>
          <input source="#shape-1f7c4030540011eaa39a3417ebb95ed2-vertex-vertices" semantic="VERTEX" offset="0"/>
          <p>31 0 30 0 27 0 27 1 30 1 26 1 25 2 24 2 29 2 29 3 24 3 28 3 28 4 30 4 29 4 29 5 30 5 31 5 27 6 26 6 23 7 23 7 26 8 22 7 23 7 22 7 19 9 19 9 22 10 18 9 16 11 17 12 9 12 9 12 17 12 6 13 9 14 6 15 3 14 9 14 3 14 2 16 2 17 3 18 1 19 2 17 1 17 0 20 0 21 1 22 4 23 4 24 1 23 5 25 4 26 5 25 7 27 7 28 5 25 8 29 7 30 8 29 13 31 7 32 13 31 18 33 18 33 13 31 19 34 24 35 25 35 20 36 20 36 25 37 21 36 20 36 21 36 16 38 16 38 21 39 17 38 14 40 15 40 10 40 10 41 15 41 11 41 10 42 11 42 12 42 10 43 12 43 14 43 14 44 12 44 15 44 26 45 30 46 22 47 22 47 30 46 28 48 22 47 28 48 20 49 20 49 28 48 24 50 18 51 22 47 16 51 16 52 22 47 20 49 10 53 0 53 4 53 18 51 14 51 10 51 18 51 10 51 7 51 7 53 10 53 4 53 14 53 9 53 10 53 10 53 9 53 2 53 10 53 2 53 0 53 16 52 14 52 18 52 14 52 16 52 9 52 25 54 29 55 21 56 21 56 29 55 31 57 21 56 31 57 23 58 23 58 31 57 27 59 17 60 21 56 23 58 15 61 19 61 11 61 19 61 15 61 23 58 23 58 15 61 17 61 11 62 1 62 3 62 11 62 3 62 12 62 13 62 8 62 11 62 13 62 11 62 19 62 8 62 5 62 11 62 11 62 5 62 1 62 15 61 12 61 17 61 17 60 12 60 6 60 6 63 12 63 3 63 38 64 34 65 39 66 39 66 34 65 35 65 33 67 35 67 32 67 32 68 35 68 34 68 37 69 33 70 36 71 36 71 33 70 32 70 35 72 33 72 39 72 39 73 33 73 37 73 39 73 37 73 41 73 41 74 49 74 45 74 41 74 37 74 49 74 49 75 37 75 42 75 42 75 46 75 49 75 49 75 46 75 51 75 36 76 32 76 34 76 34 76 38 76 36 76 36 76 38 76 43 76 48 77 47 77 50 77 43 76 47 76 36 76 36 76 47 76 40 76 40 77 47 77 48 77 40 77 48 77 44 77 37 69 36 71 40 78 37 69 40 79 42 80 42 81 40 82 44 83 42 80 44 84 46 84 46 85 44 83 48 86 46 87 48 88 51 88 51 88 48 89 50 90 51 91 50 92 49 93 49 92 50 92 47 94 49 95 47 96 45 97 45 98 47 98 43 99 45 97 43 100 41 101 41 102 43 99 38 64 41 103 38 64 39 66</p>
        </triangles>
      </mesh>
    </geometry>
  </library_geometries>
  <library_materials>
    <material name="mymaterial" id="material0">
      <instance_effect url="#effect0"/>
    </material>
  </library_materials>
  <library_visual_scenes>
    <visual_scene id="myscene">
      <node name="root" id="root">
        <instance_geometry url="#geometry0">
          <bind_material>
            <technique_common>
              <instance_material symbol="materialref" target="#material0"/>
            </technique_common>
          </bind_material>
        </instance_geometry>
      </node>
    </visual_scene>
  </library_visual_scenes>
  <scene>
    <instance_visual_scene url="#myscene"/>
  </scene>
</COLLADA>
