<robot name="">
  <link name="root">
    <inertial>
      <mass value="0.0" />
      <origin xyz="0.0 0.0 0.0" rpy="0 -0 0" />
      <inertia ixx="0.0" ixy="0.0" ixz="0.0" iyy="0.0" iyz="0.0" izz="0.0" />
    </inertial>
    <visual>
      <origin xyz="0.0 -1.0 0.0" rpy="0.0 -0.0 0.0" />
      <geometry>
        <mesh filename="-root-shape-0.dae" scale="1.0 1.0 1.0" />
      </geometry>
    </visual>
    <visual>
      <origin xyz="0.0 -1.0 0.0" rpy="-0.0 1.57079530718 -0.0" />
      <geometry>
        <mesh filename="-root-shape-1.dae" scale="1.0 1.0 1.0" />
      </geometry>
    </visual>
    <visual>
      <origin xyz="0.0 -1.0 0.0" rpy="0.0 -0.0 0.0" />
      <geometry>
        <mesh filename="-root-shape-2.dae" scale="1.0 1.0 1.0" />
      </geometry>
    </visual>
    <visual>
      <origin xyz="0.0 -1.0 0.0" rpy="0.0 -0.0 0.0" />
      <geometry>
        <mesh filename="-root-shape-3.dae" scale="1.0 1.0 1.0" />
      </geometry>
    </visual>
    <visual>
      <origin xyz="0.0 -1.0 0.0" rpy="0.0 -0.0 0.0" />
      <geometry>
        <mesh filename="-root-shape-4.dae" scale="1.0 1.0 1.0" />
      </geometry>
    </visual>
    <visual>
      <origin xyz="0.0 -1.0 0.0" rpy="0.0 -0.0 0.0" />
      <geometry>
        <mesh filename="-root-shape-5.dae" scale="1.0 1.0 1.0" />
      </geometry>
    </visual>
    <visual>
      <origin xyz="0.0 -1.0 0.0" rpy="0.0 -0.0 0.0" />
      <geometry>
        <mesh filename="-root-shape-6.dae" scale="1.0 1.0 1.0" />
      </geometry>
    </visual>
    <visual>
      <origin xyz="0.0 -1.0 0.0" rpy="0.0 -0.0 0.0" />
      <geometry>
        <mesh filename="-root-shape-7.dae" scale="1.0 1.0 1.0" />
      </geometry>
    </visual>
    <visual>
      <origin xyz="0.0 -1.0 0.0" rpy="0.0 -0.0 0.0" />
      <geometry>
        <mesh filename="-root-shape-8.dae" scale="1.0 1.0 1.0" />
      </geometry>
    </visual>
    <visual>
      <origin xyz="0.0 -1.0 0.0" rpy="0.0 -0.0 0.0" />
      <geometry>
        <mesh filename="-root-shape-9.dae" scale="1.0 1.0 1.0" />
      </geometry>
    </visual>
    <visual>
      <origin xyz="0.0 -1.0 0.0" rpy="0.0 -0.0 0.0" />
      <geometry>
        <mesh filename="-root-shape-10.dae" scale="1.0 1.0 1.0" />
      </geometry>
    </visual>
    <visual>
      <origin xyz="0.0 -1.0 0.0" rpy="0.0 -0.0 0.0" />
      <geometry>
        <mesh filename="-root-shape-11.dae" scale="1.0 1.0 1.0" />
      </geometry>
    </visual>
    <visual>
      <origin xyz="0.0 -1.0 0.0" rpy="0.0 -0.0 0.0" />
      <geometry>
        <mesh filename="-root-shape-12.dae" scale="1.0 1.0 1.0" />
      </geometry>
    </visual>
    <visual>
      <origin xyz="0.0 -1.0 0.0" rpy="0.0 -0.0 0.0" />
      <geometry>
        <mesh filename="-root-shape-13.dae" scale="1.0 1.0 1.0" />
      </geometry>
    </visual>
    <visual>
      <origin xyz="0.0 -1.0 0.0" rpy="0.0 -0.0 0.0" />
      <geometry>
        <mesh filename="-root-shape-14.dae" scale="1.0 1.0 1.0" />
      </geometry>
    </visual>
    <visual>
      <origin xyz="0.0 -1.0 0.0" rpy="0.0 -0.0 0.0" />
      <geometry>
        <mesh filename="-root-shape-15.dae" scale="1.0 1.0 1.0" />
      </geometry>
    </visual>
    <visual>
      <origin xyz="0.0 -1.0 0.0" rpy="0.0 -0.0 0.0" />
      <geometry>
        <mesh filename="-root-shape-16.dae" scale="1.0 1.0 1.0" />
      </geometry>
    </visual>
    <visual>
      <origin xyz="0.0 -1.0 0.0" rpy="0.0 -0.0 0.0" />
      <geometry>
        <mesh filename="-root-shape-17.dae" scale="1.0 1.0 1.0" />
      </geometry>
    </visual>
    <visual>
      <origin xyz="0.0 -1.0 0.0" rpy="0.0 -0.0 0.0" />
      <geometry>
        <mesh filename="-root-shape-18.dae" scale="1.0 1.0 1.0" />
      </geometry>
    </visual>
    <visual>
      <origin xyz="0.0 -1.0 0.0" rpy="0.0 -0.0 0.0" />
      <geometry>
        <mesh filename="-root-shape-19.dae" scale="1.0 1.0 1.0" />
      </geometry>
    </visual>
    <visual>
      <origin xyz="0.0 -1.0 0.0" rpy="0.0 -0.0 0.0" />
      <geometry>
        <mesh filename="-root-shape-20.dae" scale="1.0 1.0 1.0" />
      </geometry>
    </visual>
    <visual>
      <origin xyz="0.34 0.18114176176120297 -0.08977962717031794" rpy="1.57080265355 7.98763302857e-06 3.14158201237" />
      <geometry>
        <mesh filename="-root-shape-17.dae" scale="1.0 1.0 0.9999999999999999" />
      </geometry>
    </visual>
    <visual>
      <origin xyz="0.3000000185752694 0.2701417803362999 -0.08277975719626711" rpy="1.57080265355 7.98763302857e-06 3.14158201237" />
      <geometry>
        <mesh filename="-root-shape-4.dae" scale="1.0 1.0 0.9999999999999999" />
      </geometry>
    </visual>
    <visual>
      <origin xyz="-0.013 0.321642 0.0" rpy="-3.14158186032 0.0 0.0" />
      <geometry>
        <mesh filename="-root-shape-21.dae" scale="1.0 1.0 1.0" />
      </geometry>
    </visual>
    <visual>
      <origin xyz="-0.099 0.27214212206530475 0.046000131352532815" rpy="3.08009444759 1.57079349381 3.08011733238" />
      <geometry>
        <mesh filename="-root-shape-18.dae" scale="1.0 0.9999999999999999 0.9999999999999999" />
      </geometry>
    </visual>
    <visual>
      <origin xyz="-0.13159 0.30664186201338356 -0.05199996019597002" rpy="-1.57079734637 -1.06412110012e-05 3.14158466595" />
      <geometry>
        <mesh filename="-root-shape-16.dae" scale="1.0 1.0 1.0" />
      </geometry>
    </visual>
    <visual>
      <origin xyz="-0.13159 0.3066421379867221 0.05200003980366382" rpy="1.57079 2.96905122456e-11 4.6928204137e-06" />
      <geometry>
        <mesh filename="-root-shape-16.dae" scale="1.0 0.9999999999999999 0.9999999999999999" />
      </geometry>
    </visual>
    <visual>
      <origin xyz="-0.131 0.2627420769543114 0.029000156296336725" rpy="-1.57079632678 -3.67320510337e-06 -1.5708" />
      <geometry>
        <mesh filename="-root-shape-16.dae" scale="1.0 1.0 0.9999999999999999" />
      </geometry>
    </visual>
    <visual>
      <origin xyz="-0.1685 0.24274210349027972 0.03900020936809739" rpy="1.57079349917 5.48122839825e-06 1.57079915443" />
      <geometry>
        <mesh filename="-root-shape-5.dae" scale="0.9999999999999999 1.0 0.9999999999999999" />
      </geometry>
    </visual>
    <visual>
      <origin xyz="-0.131 0.26274232639175193 0.12300015629600577" rpy="-3.14158186032 0.0 0.0" />
      <geometry>
        <mesh filename="-root-shape-16.dae" scale="1.0 1.0 1.0" />
      </geometry>
    </visual>
    <visual>
      <origin xyz="-0.131 0.2627424564176518 0.17200015629583326" rpy="-1.57079416765 -1.57079223696 -1.57078766923" />
      <geometry>
        <mesh filename="-root-shape-16.dae" scale="0.9999999999999999 0.9999999999999999 0.9999999999999999" />
      </geometry>
    </visual>
    <visual>
      <origin xyz="-0.1310001963923062 0.20274245641818447 0.17200031551122086" rpy="-1.5707669736 -0.00712035557214 3.1344524188" />
      <geometry>
        <mesh filename="-root-shape-16.dae" scale="0.7999999999999999 0.8 0.8" />
      </geometry>
    </visual>
    <visual>
      <origin xyz="-0.08000039278488563 0.14274228948525686 0.17200047472705143" rpy="-3.14158678053 3.21950307761e-06 -1.57079959999" />
      <geometry>
        <mesh filename="-root-shape-22.dae" scale="1.0 1.0 1.0" />
      </geometry>
    </visual>
    <visual>
      <origin xyz="-0.13100039278461242 0.14274245641871713 0.17200047472660845" rpy="-3.14158678053 3.21950307761e-06 -1.57079959999" />
      <geometry>
        <mesh filename="-root-shape-23.dae" scale="1.0 1.0 1.0" />
      </geometry>
    </visual>
    <visual>
      <origin xyz="-0.13100032404730524 0.1637424564185307 0.17200041900122282" rpy="-3.14158678053 3.21950307761e-06 -1.57079959999" />
      <geometry>
        <mesh filename="-root-shape-24.dae" scale="1.0 1.0 1.0" />
      </geometry>
    </visual>
    <visual>
      <origin xyz="-0.17649988871078276 0.29674265311279846 0.1900000660733217" rpy="-2.89025724793e-07 1.57079265359 -1.57079723545" />
      <geometry>
        <mesh filename="-root-shape-0.dae" scale="1.0 1.0 1.0" />
      </geometry>
    </visual>
    <visual>
      <origin xyz="-0.131 0.26274192304610333 -0.028999843703459073" rpy="1.57079632682 6.3267948968e-06 1.5708" />
      <geometry>
        <mesh filename="-root-shape-16.dae" scale="0.9999999999999999 0.9999999999999999 0.9999999999999999" />
      </geometry>
    </visual>
    <visual>
      <origin xyz="-0.0935 0.24274189651027583 -0.038999790631628" rpy="-1.57079820318 2.6535811406e-06 1.57079077722" />
      <geometry>
        <mesh filename="-root-shape-5.dae" scale="1.0000000000000002 1.0000000000000002 1.0000000000000004" />
      </geometry>
    </visual>
    <visual>
      <origin xyz="-0.131 0.2627416736086628 -0.12299984370312814" rpy="-3.14158186032 0.0 0.0" />
      <geometry>
        <mesh filename="-root-shape-16.dae" scale="1.0 1.0 1.0" />
      </geometry>
    </visual>
    <visual>
      <origin xyz="-0.131 0.2627415467670707 -0.17079984370295984" rpy="-1.57079416765 -1.57079223696 -1.57078766923" />
      <geometry>
        <mesh filename="-root-shape-16.dae" scale="0.9999999999999999 0.9999999999999999 0.9999999999999999" />
      </geometry>
    </visual>
    <visual>
      <origin xyz="-0.1310001963923062 0.20274154358329557 -0.171999684487568" rpy="1.5707946808 -1.00760387567e-06 -9.03303835205e-07" />
      <geometry>
        <mesh filename="-root-shape-16.dae" scale="0.8 0.8 0.8" />
      </geometry>
    </visual>
    <visual>
      <origin xyz="-0.08000039278488563 0.14274137665036796 -0.17199952527173742" rpy="-3.14158678053 3.21950307761e-06 -1.57079959999" />
      <geometry>
        <mesh filename="-root-shape-25.dae" scale="1.0 1.0 1.0" />
      </geometry>
    </visual>
    <visual>
      <origin xyz="-0.13100039278461242 0.14274154358382823 -0.1719995252721804" rpy="-3.14158678053 3.21950307761e-06 -1.57079959999" />
      <geometry>
        <mesh filename="-root-shape-26.dae" scale="1.0 1.0 1.0" />
      </geometry>
    </visual>
    <visual>
      <origin xyz="-0.08549988871127023 0.2967413468870126 -0.18999993392455" rpy="-1.37285536578e-06 -1.57079 1.57079442647" />
      <geometry>
        <mesh filename="-root-shape-0.dae" scale="0.9999999999999999 1.0 0.9999999999999999" />
      </geometry>
    </visual>
    <visual>
      <origin xyz="-0.098 0.321642 0.0" rpy="-2.0168210215 1.57079017543 -0.446022818308" />
      <geometry>
        <mesh filename="-root-shape-16.dae" scale="1.0000000000000002 1.0000000000000004 1.0000000000000002" />
      </geometry>
    </visual>
    <visual>
      <origin xyz="-0.2645 0.22514180098110526 -0.07499974392832089" rpy="2.19640905605 -1.57079179535 2.51597890474" />
      <geometry>
        <mesh filename="-root-shape-19.dae" scale="1.0 0.9999999999999999 1.0" />
      </geometry>
    </visual>
    <visual>
      <origin xyz="-0.228 0.321642 0.0" rpy="-1.15224493527 1.57079230656 -2.72304126206" />
      <geometry>
        <mesh filename="-root-shape-16.dae" scale="0.9999999999999999 0.9999999999999999 1.0" />
      </geometry>
    </visual>
    <visual>
      <origin xyz="-0.356 0.20214232108478572 0.1210003171035543" rpy="3.08012383323 1.57079349381 3.08011733239" />
      <geometry>
        <mesh filename="-root-shape-20.dae" scale="1.0 0.9999999999999999 0.9999999999999999" />
      </geometry>
    </visual>
    <visual>
      <origin xyz="-0.323 0.321642 0.0" rpy="-2.0168210215 1.57079017543 -0.446022818308" />
      <geometry>
        <mesh filename="-root-shape-16.dae" scale="1.0000000000000002 1.0000000000000004 1.0000000000000002" />
      </geometry>
    </visual>
    <visual>
      <origin xyz="-0.44620000000000004 0.2098421976928332 0.0745002966710766" rpy="3.08012383323 1.57079349381 3.08011733239" />
      <geometry>
        <mesh filename="-root-shape-15.dae" scale="1.0 0.9999999999999999 0.9999999999999999" />
      </geometry>
    </visual>
    <visual>
      <origin xyz="-0.425 0.321642 0.0" rpy="-2.0168210215 1.57079017543 -0.446022818308" />
      <geometry>
        <mesh filename="-root-shape-16.dae" scale="1.0000000000000002 1.0000000000000004 1.0000000000000002" />
      </geometry>
    </visual>
    <visual>
      <origin xyz="-0.52 0.38264182220926907 -0.0670001618687415" rpy="-1.24447766478 -1.57078750553 -1.89710030623" />
      <geometry>
        <mesh filename="-root-shape-14.dae" scale="0.9999999999999999 0.9999999999999999 0.9999999999999998" />
      </geometry>
    </visual>
    <visual>
      <origin xyz="-0.5 0.321642 0.0" rpy="-2.0168210215 1.57079017543 -0.446022818308" />
      <geometry>
        <mesh filename="-root-shape-16.dae" scale="1.0000000000000002 1.0000000000000004 1.0000000000000002" />
      </geometry>
    </visual>
    <visual>
      <origin xyz="-0.6637 0.17014229985618 0.11300040201845585" rpy="3.08012383323 1.57079349381 3.08011733239" />
      <geometry>
        <mesh filename="-root-shape-12.dae" scale="1.0 0.9999999999999999 0.9999999999999999" />
      </geometry>
    </visual>
    <visual>
      <origin xyz="-0.569 0.32164188589563886 -0.042999999999848604" rpy="1.57079710417 -1.28442881577e-05 -3.14157793284" />
      <geometry>
        <mesh filename="-root-shape-16.dae" scale="1.0 1.0000000000000004 1.0000000000000002" />
      </geometry>
    </visual>
    <visual>
      <origin xyz="-0.569 0.3216421141043611 0.042999999999848604" rpy="-1.57080085676 -1.39156019574e-05 4.55789807957e-11" />
      <geometry>
        <mesh filename="-root-shape-16.dae" scale="1.0 1.0000000000000002 1.0000000000000002" />
      </geometry>
    </visual>
    <visual>
      <origin xyz="-0.569 0.2732419097781174 -0.03399987156613429" rpy="1.57079632682 6.3267948968e-06 1.5708" />
      <geometry>
        <mesh filename="-root-shape-16.dae" scale="0.9999999999999999 0.9999999999999999 0.9999999999999999" />
      </geometry>
    </visual>
    <visual>
      <origin xyz="-0.5315 0.25524192304612975 -0.02899982380153562" rpy="-1.57079445043 2.6535949248e-06 1.57079452996" />
      <geometry>
        <mesh filename="-root-shape-1.dae" scale="1.0000000000000002 1.0000000000000002 1.0000000000000004" />
      </geometry>
    </visual>
    <visual>
      <origin xyz="-0.569 0.27324167360862583 -0.12299987156582096" rpy="-3.14158186032 0.0 0.0" />
      <geometry>
        <mesh filename="-root-shape-16.dae" scale="1.0 1.0 1.0" />
      </geometry>
    </visual>
    <visual>
      <origin xyz="-0.569 0.2732415329683668 -0.17599987156563435" rpy="-0.647018506116 -1.57079172311 -2.49456871867" />
      <geometry>
        <mesh filename="-root-shape-16.dae" scale="1.0 1.0 0.9999999999999999" />
      </geometry>
    </visual>
    <visual>
      <origin xyz="-0.569 0.21324153296956763 -0.17599949195794054" rpy="1.57079 -0.0 -0.0" />
      <geometry>
        <mesh filename="-root-shape-16.dae" scale="0.8 0.8 0.8" />
      </geometry>
    </visual>
    <visual>
      <origin xyz="-0.5130000000004477 0.15324137462400844 -0.1759989540019308" rpy="3.14095556622 -0.000643415918938 -1.57079894921" />
      <geometry>
        <mesh filename="-root-shape-27.dae" scale="0.9999999999999999 0.9999999999999999 0.9999999999999998" />
      </geometry>
    </visual>
    <visual>
      <origin xyz="-0.569 0.15324153297076848 -0.17599911235024673" rpy="3.14095556622 -0.000643415918938 -1.57079894921" />
      <geometry>
        <mesh filename="-root-shape-28.dae" scale="0.9999999999999999 0.9999999999999999 0.9999999999999998" />
      </geometry>
    </visual>
    <visual>
      <origin xyz="-0.5225 0.30724142541217303 -0.1930000866763206" rpy="-0.526017038547 -1.57078901101 2.09681336537" />
      <geometry>
        <mesh filename="-root-shape-0.dae" scale="0.9999999999999999 0.9999999999999999 0.9999999999999999" />
      </geometry>
    </visual>
    <visual>
      <origin xyz="-0.569 0.2732420902222234 0.03400012843362629" rpy="-1.5707963268 1.01961530991e-06 -1.5708" />
      <geometry>
        <mesh filename="-root-shape-16.dae" scale="0.9999999999999999 1.0 0.9999999999999999" />
      </geometry>
    </visual>
    <visual>
      <origin xyz="-0.6064999999999999 0.2552420769543378 0.029000176198260178" rpy="1.57079445043 2.65359346719e-06 1.57079922278" />
      <geometry>
        <mesh filename="-root-shape-1.dae" scale="1.0000000000000002 1.0000000000000002 1.0000000000000004" />
      </geometry>
    </visual>
    <visual>
      <origin xyz="-0.569 0.273242326391715 0.12300012843331296" rpy="-3.14158186032 0.0 0.0" />
      <geometry>
        <mesh filename="-root-shape-16.dae" scale="1.0 1.0 1.0" />
      </geometry>
    </visual>
    <visual>
      <origin xyz="-0.569 0.273242467031974 0.17600012843312635" rpy="-0.647018506116 -1.57079172311 -2.49456871867" />
      <geometry>
        <mesh filename="-root-shape-16.dae" scale="1.0 1.0 0.9999999999999999" />
      </geometry>
    </visual>
    <visual>
      <origin xyz="-0.569 0.21324246703200522 0.17600006725620773" rpy="-1.57079530718 -0.0 0.0" />
      <geometry>
        <mesh filename="-root-shape-16.dae" scale="0.8 0.8 0.8" />
      </geometry>
    </visual>
    <visual>
      <origin xyz="-0.5130000000004477 0.15324262537995975 0.1759998477321365" rpy="2.82762772591e-06 -3.84725391458e-06 1.57079915443" />
      <geometry>
        <mesh filename="-root-shape-29.dae" scale="0.9999999999999999 0.9999999999999999 0.9999999999999999" />
      </geometry>
    </visual>
    <visual>
      <origin xyz="-0.569 0.15324246703203642 0.17600000607928915" rpy="2.82762772591e-06 -3.84725391458e-06 1.57079915443" />
      <geometry>
        <mesh filename="-root-shape-30.dae" scale="0.9999999999999999 0.9999999999999999 0.9999999999999999" />
      </geometry>
    </visual>
    <visual>
      <origin xyz="-0.5225 0.3072424843654166 0.1590001631000557" rpy="2.35619449033 -1.5707911321 -0.785398163526" />
      <geometry>
        <mesh filename="-root-shape-0.dae" scale="1.0 0.9999999999999999 1.0" />
      </geometry>
    </visual>
    <visual>
      <origin xyz="-0.7105 0.28314190738985173 -0.03489989783667008" rpy="1.87794864445 -1.57078755001 2.83444400915" />
      <geometry>
        <mesh filename="-root-shape-13.dae" scale="1.0 0.9999999999999999 0.9999999999999999" />
      </geometry>
    </visual>
    <visual>
      <origin xyz="-0.685 0.321642 0.0" rpy="-2.0168210215 1.57079017543 -0.446022818308" />
      <geometry>
        <mesh filename="-root-shape-16.dae" scale="1.0000000000000002 1.0000000000000004 1.0000000000000002" />
      </geometry>
    </visual>
    <visual>
      <origin xyz="-0.8340000000000001 0.2366421777908154 0.06700022555489654" rpy="3.08012383323 1.57079349381 3.08011733239" />
      <geometry>
        <mesh filename="-root-shape-9.dae" scale="1.0 0.9999999999999999 0.9999999999999999" />
      </geometry>
    </visual>
    <visual>
      <origin xyz="-0.802 0.321642 0.0" rpy="-1.82430258119 1.57078574624 -0.253504377996" />
      <geometry>
        <mesh filename="-root-shape-16.dae" scale="1.0000000000000002 1.0000000000000002 1.0000000000000002" />
      </geometry>
    </visual>
    <visual>
      <origin xyz="-0.997000103239902 0.2784020583766994 0.021999199640922274" rpy="0.0930513234767 1.5707944535 0.0930448226456" />
      <geometry>
        <mesh filename="-root-shape-8.dae" scale="0.9999999999999999 0.9999999999999998 0.9999999999999998" />
      </geometry>
    </visual>
    <collision>
      <origin xyz="0.0 -1.0 0.0" rpy="0.0 -0.0 0.0" />
      <geometry>
        <mesh filename="-root-shape-0.dae" scale="1.0 1.0 1.0" />
      </geometry>
    </collision>
    <collision>
      <origin xyz="0.0 -1.0 0.0" rpy="-0.0 1.57079530718 -0.0" />
      <geometry>
        <mesh filename="-root-shape-1.dae" scale="1.0 1.0 1.0" />
      </geometry>
    </collision>
    <collision>
      <origin xyz="0.0 -1.0 0.0" rpy="0.0 -0.0 0.0" />
      <geometry>
        <mesh filename="-root-shape-2.dae" scale="1.0 1.0 1.0" />
      </geometry>
    </collision>
    <collision>
      <origin xyz="0.0 -1.0 0.0" rpy="0.0 -0.0 0.0" />
      <geometry>
        <mesh filename="-root-shape-3.dae" scale="1.0 1.0 1.0" />
      </geometry>
    </collision>
    <collision>
      <origin xyz="0.0 -1.0 0.0" rpy="0.0 -0.0 0.0" />
      <geometry>
        <mesh filename="-root-shape-4.dae" scale="1.0 1.0 1.0" />
      </geometry>
    </collision>
    <collision>
      <origin xyz="0.0 -1.0 0.0" rpy="0.0 -0.0 0.0" />
      <geometry>
        <mesh filename="-root-shape-5.dae" scale="1.0 1.0 1.0" />
      </geometry>
    </collision>
    <collision>
      <origin xyz="0.0 -1.0 0.0" rpy="0.0 -0.0 0.0" />
      <geometry>
        <mesh filename="-root-shape-6.dae" scale="1.0 1.0 1.0" />
      </geometry>
    </collision>
    <collision>
      <origin xyz="0.0 -1.0 0.0" rpy="0.0 -0.0 0.0" />
      <geometry>
        <mesh filename="-root-shape-7.dae" scale="1.0 1.0 1.0" />
      </geometry>
    </collision>
    <collision>
      <origin xyz="0.0 -1.0 0.0" rpy="0.0 -0.0 0.0" />
      <geometry>
        <mesh filename="-root-shape-8.dae" scale="1.0 1.0 1.0" />
      </geometry>
    </collision>
    <collision>
      <origin xyz="0.0 -1.0 0.0" rpy="0.0 -0.0 0.0" />
      <geometry>
        <mesh filename="-root-shape-9.dae" scale="1.0 1.0 1.0" />
      </geometry>
    </collision>
    <collision>
      <origin xyz="0.0 -1.0 0.0" rpy="0.0 -0.0 0.0" />
      <geometry>
        <mesh filename="-root-shape-10.dae" scale="1.0 1.0 1.0" />
      </geometry>
    </collision>
    <collision>
      <origin xyz="0.0 -1.0 0.0" rpy="0.0 -0.0 0.0" />
      <geometry>
        <mesh filename="-root-shape-11.dae" scale="1.0 1.0 1.0" />
      </geometry>
    </collision>
    <collision>
      <origin xyz="0.0 -1.0 0.0" rpy="0.0 -0.0 0.0" />
      <geometry>
        <mesh filename="-root-shape-12.dae" scale="1.0 1.0 1.0" />
      </geometry>
    </collision>
    <collision>
      <origin xyz="0.0 -1.0 0.0" rpy="0.0 -0.0 0.0" />
      <geometry>
        <mesh filename="-root-shape-13.dae" scale="1.0 1.0 1.0" />
      </geometry>
    </collision>
    <collision>
      <origin xyz="0.0 -1.0 0.0" rpy="0.0 -0.0 0.0" />
      <geometry>
        <mesh filename="-root-shape-14.dae" scale="1.0 1.0 1.0" />
      </geometry>
    </collision>
    <collision>
      <origin xyz="0.0 -1.0 0.0" rpy="0.0 -0.0 0.0" />
      <geometry>
        <mesh filename="-root-shape-15.dae" scale="1.0 1.0 1.0" />
      </geometry>
    </collision>
    <collision>
      <origin xyz="0.0 -1.0 0.0" rpy="0.0 -0.0 0.0" />
      <geometry>
        <mesh filename="-root-shape-16.dae" scale="1.0 1.0 1.0" />
      </geometry>
    </collision>
    <collision>
      <origin xyz="0.0 -1.0 0.0" rpy="0.0 -0.0 0.0" />
      <geometry>
        <mesh filename="-root-shape-17.dae" scale="1.0 1.0 1.0" />
      </geometry>
    </collision>
    <collision>
      <origin xyz="0.0 -1.0 0.0" rpy="0.0 -0.0 0.0" />
      <geometry>
        <mesh filename="-root-shape-18.dae" scale="1.0 1.0 1.0" />
      </geometry>
    </collision>
    <collision>
      <origin xyz="0.0 -1.0 0.0" rpy="0.0 -0.0 0.0" />
      <geometry>
        <mesh filename="-root-shape-19.dae" scale="1.0 1.0 1.0" />
      </geometry>
    </collision>
    <collision>
      <origin xyz="0.0 -1.0 0.0" rpy="0.0 -0.0 0.0" />
      <geometry>
        <mesh filename="-root-shape-20.dae" scale="1.0 1.0 1.0" />
      </geometry>
    </collision>
    <collision>
      <origin xyz="0.34 0.18114176176120297 -0.08977962717031794" rpy="1.57080265355 7.98763302857e-06 3.14158201237" />
      <geometry>
        <mesh filename="-root-shape-17.dae" scale="1.0 1.0 0.9999999999999999" />
      </geometry>
    </collision>
    <collision>
      <origin xyz="0.3000000185752694 0.2701417803362999 -0.08277975719626711" rpy="1.57080265355 7.98763302857e-06 3.14158201237" />
      <geometry>
        <mesh filename="-root-shape-4.dae" scale="1.0 1.0 0.9999999999999999" />
      </geometry>
    </collision>
    <collision>
      <origin xyz="-0.013 0.321642 0.0" rpy="-3.14158186032 0.0 0.0" />
      <geometry>
        <mesh filename="-root-shape-21.dae" scale="1.0 1.0 1.0" />
      </geometry>
    </collision>
    <collision>
      <origin xyz="-0.099 0.27214212206530475 0.046000131352532815" rpy="3.08009444759 1.57079349381 3.08011733238" />
      <geometry>
        <mesh filename="-root-shape-18.dae" scale="1.0 0.9999999999999999 0.9999999999999999" />
      </geometry>
    </collision>
    <collision>
      <origin xyz="-0.13159 0.30664186201338356 -0.05199996019597002" rpy="-1.57079734637 -1.06412110012e-05 3.14158466595" />
      <geometry>
        <mesh filename="-root-shape-16.dae" scale="1.0 1.0 1.0" />
      </geometry>
    </collision>
    <collision>
      <origin xyz="-0.13159 0.3066421379867221 0.05200003980366382" rpy="1.57079 2.96905122456e-11 4.6928204137e-06" />
      <geometry>
        <mesh filename="-root-shape-16.dae" scale="1.0 0.9999999999999999 0.9999999999999999" />
      </geometry>
    </collision>
    <collision>
      <origin xyz="-0.131 0.2627420769543114 0.029000156296336725" rpy="-1.57079632678 -3.67320510337e-06 -1.5708" />
      <geometry>
        <mesh filename="-root-shape-16.dae" scale="1.0 1.0 0.9999999999999999" />
      </geometry>
    </collision>
    <collision>
      <origin xyz="-0.1685 0.24274210349027972 0.03900020936809739" rpy="1.57079349917 5.48122839825e-06 1.57079915443" />
      <geometry>
        <mesh filename="-root-shape-5.dae" scale="0.9999999999999999 1.0 0.9999999999999999" />
      </geometry>
    </collision>
    <collision>
      <origin xyz="-0.131 0.26274232639175193 0.12300015629600577" rpy="-3.14158186032 0.0 0.0" />
      <geometry>
        <mesh filename="-root-shape-16.dae" scale="1.0 1.0 1.0" />
      </geometry>
    </collision>
    <collision>
      <origin xyz="-0.131 0.2627424564176518 0.17200015629583326" rpy="-1.57079416765 -1.57079223696 -1.57078766923" />
      <geometry>
        <mesh filename="-root-shape-16.dae" scale="0.9999999999999999 0.9999999999999999 0.9999999999999999" />
      </geometry>
    </collision>
    <collision>
      <origin xyz="-0.1310001963923062 0.20274245641818447 0.17200031551122086" rpy="-1.5707669736 -0.00712035557214 3.1344524188" />
      <geometry>
        <mesh filename="-root-shape-16.dae" scale="0.7999999999999999 0.8 0.8" />
      </geometry>
    </collision>
    <collision>
      <origin xyz="-0.08000039278488563 0.14274228948525686 0.17200047472705143" rpy="-3.14158678053 3.21950307761e-06 -1.57079959999" />
      <geometry>
        <mesh filename="-root-shape-22.dae" scale="1.0 1.0 1.0" />
      </geometry>
    </collision>
    <collision>
      <origin xyz="-0.13100039278461242 0.14274245641871713 0.17200047472660845" rpy="-3.14158678053 3.21950307761e-06 -1.57079959999" />
      <geometry>
        <mesh filename="-root-shape-23.dae" scale="1.0 1.0 1.0" />
      </geometry>
    </collision>
    <collision>
      <origin xyz="-0.13100032404730524 0.1637424564185307 0.17200041900122282" rpy="-3.14158678053 3.21950307761e-06 -1.57079959999" />
      <geometry>
        <mesh filename="-root-shape-24.dae" scale="1.0 1.0 1.0" />
      </geometry>
    </collision>
    <collision>
      <origin xyz="-0.17649988871078276 0.29674265311279846 0.1900000660733217" rpy="-2.89025724793e-07 1.57079265359 -1.57079723545" />
      <geometry>
        <mesh filename="-root-shape-0.dae" scale="1.0 1.0 1.0" />
      </geometry>
    </collision>
    <collision>
      <origin xyz="-0.131 0.26274192304610333 -0.028999843703459073" rpy="1.57079632682 6.3267948968e-06 1.5708" />
      <geometry>
        <mesh filename="-root-shape-16.dae" scale="0.9999999999999999 0.9999999999999999 0.9999999999999999" />
      </geometry>
    </collision>
    <collision>
      <origin xyz="-0.0935 0.24274189651027583 -0.038999790631628" rpy="-1.57079820318 2.6535811406e-06 1.57079077722" />
      <geometry>
        <mesh filename="-root-shape-5.dae" scale="1.0000000000000002 1.0000000000000002 1.0000000000000004" />
      </geometry>
    </collision>
    <collision>
      <origin xyz="-0.131 0.2627416736086628 -0.12299984370312814" rpy="-3.14158186032 0.0 0.0" />
      <geometry>
        <mesh filename="-root-shape-16.dae" scale="1.0 1.0 1.0" />
      </geometry>
    </collision>
    <collision>
      <origin xyz="-0.131 0.2627415467670707 -0.17079984370295984" rpy="-1.57079416765 -1.57079223696 -1.57078766923" />
      <geometry>
        <mesh filename="-root-shape-16.dae" scale="0.9999999999999999 0.9999999999999999 0.9999999999999999" />
      </geometry>
    </collision>
    <collision>
      <origin xyz="-0.1310001963923062 0.20274154358329557 -0.171999684487568" rpy="1.5707946808 -1.00760387567e-06 -9.03303835205e-07" />
      <geometry>
        <mesh filename="-root-shape-16.dae" scale="0.8 0.8 0.8" />
      </geometry>
    </collision>
    <collision>
      <origin xyz="-0.08000039278488563 0.14274137665036796 -0.17199952527173742" rpy="-3.14158678053 3.21950307761e-06 -1.57079959999" />
      <geometry>
        <mesh filename="-root-shape-25.dae" scale="1.0 1.0 1.0" />
      </geometry>
    </collision>
    <collision>
      <origin xyz="-0.13100039278461242 0.14274154358382823 -0.1719995252721804" rpy="-3.14158678053 3.21950307761e-06 -1.57079959999" />
      <geometry>
        <mesh filename="-root-shape-26.dae" scale="1.0 1.0 1.0" />
      </geometry>
    </collision>
    <collision>
      <origin xyz="-0.08549988871127023 0.2967413468870126 -0.18999993392455" rpy="-1.37285536578e-06 -1.57079 1.57079442647" />
      <geometry>
        <mesh filename="-root-shape-0.dae" scale="0.9999999999999999 1.0 0.9999999999999999" />
      </geometry>
    </collision>
    <collision>
      <origin xyz="-0.098 0.321642 0.0" rpy="-2.0168210215 1.57079017543 -0.446022818308" />
      <geometry>
        <mesh filename="-root-shape-16.dae" scale="1.0000000000000002 1.0000000000000004 1.0000000000000002" />
      </geometry>
    </collision>
    <collision>
      <origin xyz="-0.2645 0.22514180098110526 -0.07499974392832089" rpy="2.19640905605 -1.57079179535 2.51597890474" />
      <geometry>
        <mesh filename="-root-shape-19.dae" scale="1.0 0.9999999999999999 1.0" />
      </geometry>
    </collision>
    <collision>
      <origin xyz="-0.228 0.321642 0.0" rpy="-1.15224493527 1.57079230656 -2.72304126206" />
      <geometry>
        <mesh filename="-root-shape-16.dae" scale="0.9999999999999999 0.9999999999999999 1.0" />
      </geometry>
    </collision>
    <collision>
      <origin xyz="-0.356 0.20214232108478572 0.1210003171035543" rpy="3.08012383323 1.57079349381 3.08011733239" />
      <geometry>
        <mesh filename="-root-shape-20.dae" scale="1.0 0.9999999999999999 0.9999999999999999" />
      </geometry>
    </collision>
    <collision>
      <origin xyz="-0.323 0.321642 0.0" rpy="-2.0168210215 1.57079017543 -0.446022818308" />
      <geometry>
        <mesh filename="-root-shape-16.dae" scale="1.0000000000000002 1.0000000000000004 1.0000000000000002" />
      </geometry>
    </collision>
    <collision>
      <origin xyz="-0.44620000000000004 0.2098421976928332 0.0745002966710766" rpy="3.08012383323 1.57079349381 3.08011733239" />
      <geometry>
        <mesh filename="-root-shape-15.dae" scale="1.0 0.9999999999999999 0.9999999999999999" />
      </geometry>
    </collision>
    <collision>
      <origin xyz="-0.425 0.321642 0.0" rpy="-2.0168210215 1.57079017543 -0.446022818308" />
      <geometry>
        <mesh filename="-root-shape-16.dae" scale="1.0000000000000002 1.0000000000000004 1.0000000000000002" />
      </geometry>
    </collision>
    <collision>
      <origin xyz="-0.52 0.38264182220926907 -0.0670001618687415" rpy="-1.24447766478 -1.57078750553 -1.89710030623" />
      <geometry>
        <mesh filename="-root-shape-14.dae" scale="0.9999999999999999 0.9999999999999999 0.9999999999999998" />
      </geometry>
    </collision>
    <collision>
      <origin xyz="-0.5 0.321642 0.0" rpy="-2.0168210215 1.57079017543 -0.446022818308" />
      <geometry>
        <mesh filename="-root-shape-16.dae" scale="1.0000000000000002 1.0000000000000004 1.0000000000000002" />
      </geometry>
    </collision>
    <collision>
      <origin xyz="-0.6637 0.17014229985618 0.11300040201845585" rpy="3.08012383323 1.57079349381 3.08011733239" />
      <geometry>
        <mesh filename="-root-shape-12.dae" scale="1.0 0.9999999999999999 0.9999999999999999" />
      </geometry>
    </collision>
    <collision>
      <origin xyz="-0.569 0.32164188589563886 -0.042999999999848604" rpy="1.57079710417 -1.28442881577e-05 -3.14157793284" />
      <geometry>
        <mesh filename="-root-shape-16.dae" scale="1.0 1.0000000000000004 1.0000000000000002" />
      </geometry>
    </collision>
    <collision>
      <origin xyz="-0.569 0.3216421141043611 0.042999999999848604" rpy="-1.57080085676 -1.39156019574e-05 4.55789807957e-11" />
      <geometry>
        <mesh filename="-root-shape-16.dae" scale="1.0 1.0000000000000002 1.0000000000000002" />
      </geometry>
    </collision>
    <collision>
      <origin xyz="-0.569 0.2732419097781174 -0.03399987156613429" rpy="1.57079632682 6.3267948968e-06 1.5708" />
      <geometry>
        <mesh filename="-root-shape-16.dae" scale="0.9999999999999999 0.9999999999999999 0.9999999999999999" />
      </geometry>
    </collision>
    <collision>
      <origin xyz="-0.5315 0.25524192304612975 -0.02899982380153562" rpy="-1.57079445043 2.6535949248e-06 1.57079452996" />
      <geometry>
        <mesh filename="-root-shape-1.dae" scale="1.0000000000000002 1.0000000000000002 1.0000000000000004" />
      </geometry>
    </collision>
    <collision>
      <origin xyz="-0.569 0.27324167360862583 -0.12299987156582096" rpy="-3.14158186032 0.0 0.0" />
      <geometry>
        <mesh filename="-root-shape-16.dae" scale="1.0 1.0 1.0" />
      </geometry>
    </collision>
    <collision>
      <origin xyz="-0.569 0.2732415329683668 -0.17599987156563435" rpy="-0.647018506116 -1.57079172311 -2.49456871867" />
      <geometry>
        <mesh filename="-root-shape-16.dae" scale="1.0 1.0 0.9999999999999999" />
      </geometry>
    </collision>
    <collision>
      <origin xyz="-0.569 0.21324153296956763 -0.17599949195794054" rpy="1.57079 -0.0 -0.0" />
      <geometry>
        <mesh filename="-root-shape-16.dae" scale="0.8 0.8 0.8" />
      </geometry>
    </collision>
    <collision>
      <origin xyz="-0.5130000000004477 0.15324137462400844 -0.1759989540019308" rpy="3.14095556622 -0.000643415918938 -1.57079894921" />
      <geometry>
        <mesh filename="-root-shape-27.dae" scale="0.9999999999999999 0.9999999999999999 0.9999999999999998" />
      </geometry>
    </collision>
    <collision>
      <origin xyz="-0.569 0.15324153297076848 -0.17599911235024673" rpy="3.14095556622 -0.000643415918938 -1.57079894921" />
      <geometry>
        <mesh filename="-root-shape-28.dae" scale="0.9999999999999999 0.9999999999999999 0.9999999999999998" />
      </geometry>
    </collision>
    <collision>
      <origin xyz="-0.5225 0.30724142541217303 -0.1930000866763206" rpy="-0.526017038547 -1.57078901101 2.09681336537" />
      <geometry>
        <mesh filename="-root-shape-0.dae" scale="0.9999999999999999 0.9999999999999999 0.9999999999999999" />
      </geometry>
    </collision>
    <collision>
      <origin xyz="-0.569 0.2732420902222234 0.03400012843362629" rpy="-1.5707963268 1.01961530991e-06 -1.5708" />
      <geometry>
        <mesh filename="-root-shape-16.dae" scale="0.9999999999999999 1.0 0.9999999999999999" />
      </geometry>
    </collision>
    <collision>
      <origin xyz="-0.6064999999999999 0.2552420769543378 0.029000176198260178" rpy="1.57079445043 2.65359346719e-06 1.57079922278" />
      <geometry>
        <mesh filename="-root-shape-1.dae" scale="1.0000000000000002 1.0000000000000002 1.0000000000000004" />
      </geometry>
    </collision>
    <collision>
      <origin xyz="-0.569 0.273242326391715 0.12300012843331296" rpy="-3.14158186032 0.0 0.0" />
      <geometry>
        <mesh filename="-root-shape-16.dae" scale="1.0 1.0 1.0" />
      </geometry>
    </collision>
    <collision>
      <origin xyz="-0.569 0.273242467031974 0.17600012843312635" rpy="-0.647018506116 -1.57079172311 -2.49456871867" />
      <geometry>
        <mesh filename="-root-shape-16.dae" scale="1.0 1.0 0.9999999999999999" />
      </geometry>
    </collision>
    <collision>
      <origin xyz="-0.569 0.21324246703200522 0.17600006725620773" rpy="-1.57079530718 -0.0 0.0" />
      <geometry>
        <mesh filename="-root-shape-16.dae" scale="0.8 0.8 0.8" />
      </geometry>
    </collision>
    <collision>
      <origin xyz="-0.5130000000004477 0.15324262537995975 0.1759998477321365" rpy="2.82762772591e-06 -3.84725391458e-06 1.57079915443" />
      <geometry>
        <mesh filename="-root-shape-29.dae" scale="0.9999999999999999 0.9999999999999999 0.9999999999999999" />
      </geometry>
    </collision>
    <collision>
      <origin xyz="-0.569 0.15324246703203642 0.17600000607928915" rpy="2.82762772591e-06 -3.84725391458e-06 1.57079915443" />
      <geometry>
        <mesh filename="-root-shape-30.dae" scale="0.9999999999999999 0.9999999999999999 0.9999999999999999" />
      </geometry>
    </collision>
    <collision>
      <origin xyz="-0.5225 0.3072424843654166 0.1590001631000557" rpy="2.35619449033 -1.5707911321 -0.785398163526" />
      <geometry>
        <mesh filename="-root-shape-0.dae" scale="1.0 0.9999999999999999 1.0" />
      </geometry>
    </collision>
    <collision>
      <origin xyz="-0.7105 0.28314190738985173 -0.03489989783667008" rpy="1.87794864445 -1.57078755001 2.83444400915" />
      <geometry>
        <mesh filename="-root-shape-13.dae" scale="1.0 0.9999999999999999 0.9999999999999999" />
      </geometry>
    </collision>
    <collision>
      <origin xyz="-0.685 0.321642 0.0" rpy="-2.0168210215 1.57079017543 -0.446022818308" />
      <geometry>
        <mesh filename="-root-shape-16.dae" scale="1.0000000000000002 1.0000000000000004 1.0000000000000002" />
      </geometry>
    </collision>
    <collision>
      <origin xyz="-0.8340000000000001 0.2366421777908154 0.06700022555489654" rpy="3.08012383323 1.57079349381 3.08011733239" />
      <geometry>
        <mesh filename="-root-shape-9.dae" scale="1.0 0.9999999999999999 0.9999999999999999" />
      </geometry>
    </collision>
    <collision>
      <origin xyz="-0.802 0.321642 0.0" rpy="-1.82430258119 1.57078574624 -0.253504377996" />
      <geometry>
        <mesh filename="-root-shape-16.dae" scale="1.0000000000000002 1.0000000000000002 1.0000000000000002" />
      </geometry>
    </collision>
    <collision>
      <origin xyz="-0.997000103239902 0.2784020583766994 0.021999199640922274" rpy="0.0930513234767 1.5707944535 0.0930448226456" />
      <geometry>
        <mesh filename="-root-shape-8.dae" scale="0.9999999999999999 0.9999999999999998 0.9999999999999998" />
      </geometry>
    </collision>
  </link>
</robot>